{
  "metadata": {
    "pull_date": "2026-01-23",
    "endpoint": "ingredients",
    "locale": "en-GB",
    "page": 9,
    "pulled_at_utc": "2026-01-23T22:35:11.447474"
  },
  "payload": {
    "data": [
      {
        "id": 13706,
        "name": "Pork Loin Fillet",
        "created_at": "2025-12-23T19:05:31.657000Z",
        "updated_at": "2026-01-10T14:23:01.052000Z"
      },
      {
        "id": 13705,
        "name": "Easy Garlic",
        "created_at": "2025-12-23T19:05:31.570000Z",
        "updated_at": "2026-01-10T14:23:01.051000Z"
      },
      {
        "id": 13704,
        "name": "Light Coconut Milk",
        "created_at": "2025-12-23T19:05:31.327000Z",
        "updated_at": "2026-01-10T14:23:01.051000Z"
      },
      {
        "id": 13703,
        "name": "Quinoa",
        "created_at": "2025-12-23T19:05:31.315000Z",
        "updated_at": "2026-01-10T14:23:01.050000Z"
      },
      {
        "id": 13702,
        "name": "Paprika.",
        "created_at": "2025-12-23T19:05:30.721000Z",
        "updated_at": "2026-01-10T14:23:01.049000Z"
      },
      {
        "id": 13701,
        "name": "Garlic Mayonnaise",
        "created_at": "2025-12-23T19:05:30.707000Z",
        "updated_at": "2026-01-18T01:18:03.978000Z"
      },
      {
        "id": 13700,
        "name": "Red Wine",
        "created_at": "2025-12-23T19:05:30.702000Z",
        "updated_at": "2026-01-10T14:23:01.047000Z"
      },
      {
        "id": 13699,
        "name": "Cinnamon Stick",
        "created_at": "2025-12-23T19:05:30.449000Z",
        "updated_at": "2026-01-10T14:23:01.046000Z"
      },
      {
        "id": 13698,
        "name": "Red Pepper",
        "created_at": "2025-12-23T19:05:30.432000Z",
        "updated_at": "2026-01-10T14:23:01.046000Z"
      },
      {
        "id": 13697,
        "name": "Brown Basmati Rice",
        "created_at": "2025-12-23T19:05:30.267000Z",
        "updated_at": "2026-01-10T14:23:01.045000Z"
      },
      {
        "id": 13696,
        "name": "Brown Rice & Quinoa",
        "created_at": "2025-12-23T19:05:30.260000Z",
        "updated_at": "2026-01-10T14:23:01.044000Z"
      },
      {
        "id": 13695,
        "name": "Cherry Plum Tomatoes",
        "created_at": "2025-12-23T19:05:30.259000Z",
        "updated_at": "2026-01-10T14:23:01.043000Z"
      },
      {
        "id": 13694,
        "name": "Aromatic Vegetable Mix",
        "created_at": "2025-12-23T19:05:30.013000Z",
        "updated_at": "2026-01-10T14:23:01.042000Z"
      },
      {
        "id": 13693,
        "name": "White Wine Vinegar",
        "created_at": "2025-12-23T19:05:29.962000Z",
        "updated_at": "2026-01-18T01:17:57.577000Z"
      },
      {
        "id": 13692,
        "name": "Bramley Apple",
        "created_at": "2025-12-23T19:05:29.456000Z",
        "updated_at": "2026-01-10T14:23:01.041000Z"
      },
      {
        "id": 13691,
        "name": "Gϋ Hot Chocolate Molten Middles",
        "created_at": "2025-12-23T19:05:29.455000Z",
        "updated_at": "2026-01-10T14:23:01.040000Z"
      },
      {
        "id": 13690,
        "name": "Gü Double Chocolate Brownies",
        "created_at": "2025-12-23T19:05:29.442000Z",
        "updated_at": "2026-01-10T14:23:01.039000Z"
      },
      {
        "id": 13689,
        "name": "Coley Fillet",
        "created_at": "2025-12-23T19:05:27.889000Z",
        "updated_at": "2026-01-10T14:23:01.038000Z"
      },
      {
        "id": 13688,
        "name": "Steamed Long Grain Rice",
        "created_at": "2025-12-23T19:05:27.218000Z",
        "updated_at": "2026-01-10T14:23:01.038000Z"
      },
      {
        "id": 13687,
        "name": "Sun-Dried Tomato, Pecorino & Aubergine Cappellacci",
        "created_at": "2025-12-23T19:05:27.095000Z",
        "updated_at": "2026-01-10T14:23:01.037000Z"
      },
      {
        "id": 13686,
        "name": "Swede",
        "created_at": "2025-12-23T19:05:26.884000Z",
        "updated_at": "2026-01-10T14:23:01.036000Z"
      },
      {
        "id": 13685,
        "name": "Prosciutto",
        "created_at": "2025-12-23T19:05:26.611000Z",
        "updated_at": "2026-01-10T14:23:01.035000Z"
      },
      {
        "id": 13684,
        "name": "Prosciutto Ham Slices",
        "created_at": "2025-12-23T19:05:26.604000Z",
        "updated_at": "2026-01-10T14:23:01.034000Z"
      },
      {
        "id": 13683,
        "name": "Chapatis",
        "created_at": "2025-12-23T19:05:26.231000Z",
        "updated_at": "2026-01-10T14:23:01.033000Z"
      },
      {
        "id": 13682,
        "name": "Water for the Cucumber",
        "created_at": "2025-12-23T19:05:26.194000Z",
        "updated_at": "2026-01-10T14:23:01.032000Z"
      },
      {
        "id": 13681,
        "name": "Coconut Powder",
        "created_at": "2025-12-23T19:05:24.166000Z",
        "updated_at": "2026-01-10T14:23:01.031000Z"
      },
      {
        "id": 13680,
        "name": "Chorizo Style Pork Sausage",
        "created_at": "2025-12-23T19:05:23.725000Z",
        "updated_at": "2026-01-10T14:23:01.031000Z"
      },
      {
        "id": 13679,
        "name": "Pasta Sauce with Porcini Mushrooms",
        "created_at": "2025-12-23T19:05:22.971000Z",
        "updated_at": "2026-01-10T14:23:01.030000Z"
      },
      {
        "id": 13678,
        "name": "Toulouse Sausage",
        "created_at": "2025-12-23T19:05:21.993000Z",
        "updated_at": "2026-01-18T01:17:54.439000Z"
      },
      {
        "id": 13677,
        "name": "Cosberg Lettuce",
        "created_at": "2025-12-23T19:05:20.451000Z",
        "updated_at": "2026-01-10T14:23:01.028000Z"
      },
      {
        "id": 13676,
        "name": "Linda McCartney Vegetarian Meatballs",
        "created_at": "2025-12-23T19:05:20.356000Z",
        "updated_at": "2026-01-10T14:23:01.028000Z"
      },
      {
        "id": 13675,
        "name": "Scrambled Egg Mix",
        "created_at": "2025-12-23T19:05:20.336000Z",
        "updated_at": "2026-01-10T14:23:01.027000Z"
      },
      {
        "id": 13674,
        "name": "Yellow Pepper",
        "created_at": "2025-12-23T19:05:19.990000Z",
        "updated_at": "2026-01-10T14:23:01.026000Z"
      },
      {
        "id": 13673,
        "name": "Eggs",
        "created_at": "2025-12-23T19:05:19.849000Z",
        "updated_at": "2026-01-10T14:23:01.025000Z"
      },
      {
        "id": 13672,
        "name": "Pre-Cooked Baby Potatoes",
        "created_at": "2025-12-23T19:05:18.900000Z",
        "updated_at": "2026-01-10T14:23:01.025000Z"
      },
      {
        "id": 13671,
        "name": "Goan Xacuti Spice",
        "created_at": "2025-12-23T19:05:17.525000Z",
        "updated_at": "2026-01-10T14:23:01.024000Z"
      },
      {
        "id": 13670,
        "name": "Red and Black Quinoa",
        "created_at": "2025-12-23T19:05:16.662000Z",
        "updated_at": "2026-01-10T14:23:01.023000Z"
      },
      {
        "id": 13669,
        "name": "Reduced Fat Creme Fraiche",
        "created_at": "2025-12-23T19:05:15.220000Z",
        "updated_at": "2026-01-10T14:23:01.023000Z"
      },
      {
        "id": 13668,
        "name": "Biona Chilli Beans",
        "created_at": "2025-12-23T19:05:15.142000Z",
        "updated_at": "2026-01-10T14:23:01.022000Z"
      },
      {
        "id": 13667,
        "name": "Chocolate Digestive Biscuit Crumbs",
        "created_at": "2025-12-23T19:05:14.889000Z",
        "updated_at": "2026-01-10T14:23:01.021000Z"
      },
      {
        "id": 13666,
        "name": "Olive and Caper Tomato Sauce",
        "created_at": "2025-12-23T19:05:13.808000Z",
        "updated_at": "2026-01-10T14:23:01.020000Z"
      },
      {
        "id": 13665,
        "name": "Vivera Plant Chicken Pieces",
        "created_at": "2025-12-23T19:05:13.023000Z",
        "updated_at": "2026-01-10T14:23:01.020000Z"
      },
      {
        "id": 13664,
        "name": "Kuala Lumpur Style Curry Powder",
        "created_at": "2025-12-23T19:05:12.812000Z",
        "updated_at": "2026-01-10T14:23:01.019000Z"
      },
      {
        "id": 13663,
        "name": "Tuscan Pork Sausage",
        "created_at": "2025-12-23T19:05:12.710000Z",
        "updated_at": "2026-01-18T01:18:06.019000Z"
      },
      {
        "id": 13662,
        "name": "Water for Curry",
        "created_at": "2025-12-23T19:05:12.384000Z",
        "updated_at": "2026-01-10T14:23:01.017000Z"
      },
      {
        "id": 13661,
        "name": "Fennel Seeds",
        "created_at": "2025-12-23T19:05:12.199000Z",
        "updated_at": "2026-01-10T14:23:01.017000Z"
      },
      {
        "id": 13660,
        "name": "Linda McCartney Sausages",
        "created_at": "2025-12-23T19:05:10.680000Z",
        "updated_at": "2026-01-10T14:23:01.016000Z"
      },
      {
        "id": 13659,
        "name": "Lamb Shank",
        "created_at": "2025-12-23T19:05:10.560000Z",
        "updated_at": "2026-01-10T14:23:01.015000Z"
      },
      {
        "id": 13658,
        "name": "Celeriac",
        "created_at": "2025-12-23T19:05:10.174000Z",
        "updated_at": "2026-01-18T01:16:59.690000Z"
      },
      {
        "id": 13657,
        "name": "Lemon Mint Parsley Couscous",
        "created_at": "2025-12-23T19:05:09.788000Z",
        "updated_at": "2026-01-10T14:23:01.014000Z"
      }
    ],
    "meta": {
      "current_page": 9,
      "from": 401,
      "last_page": 23,
      "per_page": 50,
      "to": 450,
      "total": 1147
    }
  }
}