{
  "metadata": {
    "pull_date": "2026-01-23",
    "endpoint": "ingredients",
    "locale": "en-GB",
    "page": 2,
    "pulled_at_utc": "2026-01-23T22:35:09.707316"
  },
  "payload": {
    "data": [
      {
        "id": 16666,
        "name": "Wholemeal Pita Bread",
        "created_at": "2026-01-02T02:47:07.688000Z",
        "updated_at": "2026-01-10T14:23:01.807000Z"
      },
      {
        "id": 16665,
        "name": "Tracklements Fig Relish",
        "created_at": "2026-01-02T02:47:07.495000Z",
        "updated_at": "2026-01-10T14:23:01.807000Z"
      },
      {
        "id": 16664,
        "name": "Chicory",
        "created_at": "2026-01-02T02:47:07.490000Z",
        "updated_at": "2026-01-10T14:23:01.806000Z"
      },
      {
        "id": 16663,
        "name": "Nachos",
        "created_at": "2026-01-02T02:47:07.406000Z",
        "updated_at": "2026-01-10T14:23:01.806000Z"
      },
      {
        "id": 16662,
        "name": "Wholemeal Bap",
        "created_at": "2026-01-02T02:47:07.275000Z",
        "updated_at": "2026-01-10T14:23:01.805000Z"
      },
      {
        "id": 16661,
        "name": "Dates",
        "created_at": "2026-01-02T02:47:07.120000Z",
        "updated_at": "2026-01-10T14:23:01.805000Z"
      },
      {
        "id": 16660,
        "name": "Smoked Mackerel",
        "created_at": "2026-01-02T02:47:07.097000Z",
        "updated_at": "2026-01-10T14:23:01.804000Z"
      },
      {
        "id": 16659,
        "name": "Smoked Bacon",
        "created_at": "2026-01-02T02:47:06.997000Z",
        "updated_at": "2026-01-10T14:23:01.804000Z"
      },
      {
        "id": 16658,
        "name": "Granary Roll",
        "created_at": "2026-01-02T02:47:06.975000Z",
        "updated_at": "2026-01-10T14:23:01.803000Z"
      },
      {
        "id": 16657,
        "name": "Apricot and Ginger Chutney",
        "created_at": "2026-01-02T02:47:06.669000Z",
        "updated_at": "2026-01-10T14:23:01.803000Z"
      },
      {
        "id": 16656,
        "name": "Elephant Garlic",
        "created_at": "2026-01-02T02:47:06.452000Z",
        "updated_at": "2026-01-10T14:23:01.802000Z"
      },
      {
        "id": 16655,
        "name": "Grilled Peppers",
        "created_at": "2026-01-02T02:47:06.438000Z",
        "updated_at": "2026-01-10T14:23:01.802000Z"
      },
      {
        "id": 16654,
        "name": "Lilliput Capers",
        "created_at": "2026-01-02T02:47:06.408000Z",
        "updated_at": "2026-01-10T14:23:01.802000Z"
      },
      {
        "id": 16653,
        "name": "Creamed Coconut",
        "created_at": "2026-01-02T02:47:06.199000Z",
        "updated_at": "2026-01-10T14:23:01.801000Z"
      },
      {
        "id": 16652,
        "name": "Organic Haricot Beans",
        "created_at": "2026-01-02T02:47:06.078000Z",
        "updated_at": "2026-01-10T14:23:01.801000Z"
      },
      {
        "id": 16651,
        "name": "Green Apple",
        "created_at": "2026-01-02T02:47:06.064000Z",
        "updated_at": "2026-01-10T14:23:01.800000Z"
      },
      {
        "id": 16650,
        "name": "Wild Mushrooms",
        "created_at": "2026-01-02T02:47:06.022000Z",
        "updated_at": "2026-01-10T14:23:01.800000Z"
      },
      {
        "id": 16649,
        "name": "Smoky Coriander",
        "created_at": "2026-01-02T02:47:05.981000Z",
        "updated_at": "2026-01-10T14:23:01.799000Z"
      },
      {
        "id": 16648,
        "name": "Turnip",
        "created_at": "2026-01-02T02:47:05.976000Z",
        "updated_at": "2026-01-10T14:23:01.799000Z"
      },
      {
        "id": 16647,
        "name": "Spicy Cinnamon",
        "created_at": "2026-01-02T02:47:05.969000Z",
        "updated_at": "2026-01-10T14:23:01.798000Z"
      },
      {
        "id": 16646,
        "name": "Ground Cumin & Mild Paprika",
        "created_at": "2026-01-02T02:47:05.864000Z",
        "updated_at": "2026-01-10T14:23:01.798000Z"
      },
      {
        "id": 16645,
        "name": "Sweet Soy Sauce",
        "created_at": "2026-01-02T02:47:05.753000Z",
        "updated_at": "2026-01-10T14:23:01.797000Z"
      },
      {
        "id": 16644,
        "name": "South Indian Spice Mix",
        "created_at": "2026-01-02T02:47:05.446000Z",
        "updated_at": "2026-01-10T14:23:01.797000Z"
      },
      {
        "id": 16643,
        "name": "January King Cabbage",
        "created_at": "2026-01-02T02:47:05.322000Z",
        "updated_at": "2026-01-10T14:23:01.796000Z"
      },
      {
        "id": 16641,
        "name": "Vegetarian Suet",
        "created_at": "2026-01-02T02:47:02.536000Z",
        "updated_at": "2026-01-10T14:23:01.796000Z"
      },
      {
        "id": 16640,
        "name": "Self Raising Flour",
        "created_at": "2026-01-02T02:47:02.526000Z",
        "updated_at": "2026-01-10T14:23:01.796000Z"
      },
      {
        "id": 16639,
        "name": "Roasted and Ground Cumin Mix",
        "created_at": "2026-01-02T02:47:01.456000Z",
        "updated_at": "2026-01-10T14:23:01.795000Z"
      },
      {
        "id": 16638,
        "name": "Habernero Sauce",
        "created_at": "2026-01-02T02:47:00.888000Z",
        "updated_at": "2026-01-10T14:23:01.795000Z"
      },
      {
        "id": 16637,
        "name": "Yellow Mustard Seeds",
        "created_at": "2026-01-02T02:47:00.655000Z",
        "updated_at": "2026-01-10T14:23:01.794000Z"
      },
      {
        "id": 16636,
        "name": "Organic sweet corn",
        "created_at": "2026-01-02T02:47:00.404000Z",
        "updated_at": "2026-01-18T01:18:26.651000Z"
      },
      {
        "id": 16635,
        "name": "Balsamic Cream with Figs",
        "created_at": "2026-01-02T02:47:00.262000Z",
        "updated_at": "2026-01-10T14:23:01.793000Z"
      },
      {
        "id": 16630,
        "name": "Vegetable Stock",
        "created_at": "2026-01-02T02:46:54.884000Z",
        "updated_at": "2026-01-10T14:23:01.793000Z"
      },
      {
        "id": 16629,
        "name": "Vermicelli Rice Noodles",
        "created_at": "2026-01-02T02:46:54.388000Z",
        "updated_at": "2026-01-10T14:23:01.792000Z"
      },
      {
        "id": 16628,
        "name": "Balsamic Cream",
        "created_at": "2026-01-02T02:46:53.880000Z",
        "updated_at": "2026-01-10T14:23:01.792000Z"
      },
      {
        "id": 16627,
        "name": "Steve's Leaves Fennel Tops",
        "created_at": "2026-01-02T02:46:53.863000Z",
        "updated_at": "2026-01-10T14:23:01.791000Z"
      },
      {
        "id": 16626,
        "name": "Organic Chopped Tomatoes",
        "created_at": "2026-01-02T02:46:53.850000Z",
        "updated_at": "2026-01-10T14:23:01.791000Z"
      },
      {
        "id": 16625,
        "name": "English Mustard",
        "created_at": "2026-01-02T02:46:52.454000Z",
        "updated_at": "2026-01-10T14:23:01.791000Z"
      },
      {
        "id": 16624,
        "name": "Habanero Sauce",
        "created_at": "2026-01-02T02:46:51.530000Z",
        "updated_at": "2026-01-10T14:23:01.790000Z"
      },
      {
        "id": 16623,
        "name": "Enoki Mushrooms",
        "created_at": "2026-01-02T02:46:51.026000Z",
        "updated_at": "2026-01-10T14:23:01.790000Z"
      },
      {
        "id": 16621,
        "name": "Wholemeal Flour",
        "created_at": "2026-01-02T02:46:49.127000Z",
        "updated_at": "2026-01-10T14:23:01.789000Z"
      },
      {
        "id": 16620,
        "name": "Almonds",
        "created_at": "2026-01-02T02:46:48.457000Z",
        "updated_at": "2026-01-10T14:23:01.789000Z"
      },
      {
        "id": 16619,
        "name": "Thai Holy Basil",
        "created_at": "2026-01-02T02:46:45.452000Z",
        "updated_at": "2026-01-10T14:23:01.788000Z"
      },
      {
        "id": 16618,
        "name": "Munchy Seeds: Honey Seeds",
        "created_at": "2026-01-02T02:46:44.596000Z",
        "updated_at": "2026-01-10T14:23:01.788000Z"
      },
      {
        "id": 16617,
        "name": "Olive Oil for Halloumi",
        "created_at": "2026-01-02T02:46:43.898000Z",
        "updated_at": "2026-01-10T14:23:01.787000Z"
      },
      {
        "id": 16616,
        "name": "Olive Oil for Tabbouleh",
        "created_at": "2026-01-02T02:46:43.886000Z",
        "updated_at": "2026-01-10T14:23:01.787000Z"
      },
      {
        "id": 16615,
        "name": "Water for Batter",
        "created_at": "2026-01-02T02:46:43.104000Z",
        "updated_at": "2026-01-10T14:23:01.786000Z"
      },
      {
        "id": 16614,
        "name": "Jalapeño Chilli",
        "created_at": "2026-01-02T02:46:38.117000Z",
        "updated_at": "2026-01-10T14:23:01.786000Z"
      },
      {
        "id": 16613,
        "name": "Fish Stock Pot",
        "created_at": "2026-01-02T02:46:37.701000Z",
        "updated_at": "2026-01-10T14:23:01.786000Z"
      },
      {
        "id": 16612,
        "name": "Olive Oil for the croutons",
        "created_at": "2026-01-02T02:46:35.549000Z",
        "updated_at": "2026-01-10T14:23:01.785000Z"
      },
      {
        "id": 16610,
        "name": "Wholemeal Baguette",
        "created_at": "2026-01-02T02:46:30.375000Z",
        "updated_at": "2026-01-10T14:23:01.785000Z"
      }
    ],
    "meta": {
      "current_page": 2,
      "from": 51,
      "last_page": 23,
      "per_page": 50,
      "to": 100,
      "total": 1147
    }
  }
}