{
  "metadata": {
    "pull_date": "2026-01-23",
    "endpoint": "ingredients",
    "locale": "en-GB",
    "page": 10,
    "pulled_at_utc": "2026-01-23T22:35:11.669593"
  },
  "payload": {
    "data": [
      {
        "id": 13656,
        "name": "Wheat Spaghetti",
        "created_at": "2025-12-23T19:05:09.565000Z",
        "updated_at": "2026-01-10T14:23:01.013000Z"
      },
      {
        "id": 13655,
        "name": "Pre-Cooked Diced Potato",
        "created_at": "2025-12-23T19:05:08.292000Z",
        "updated_at": "2026-01-10T14:23:01.012000Z"
      },
      {
        "id": 13654,
        "name": "Chervil",
        "created_at": "2025-12-23T19:05:06.910000Z",
        "updated_at": "2026-01-10T14:23:01.012000Z"
      },
      {
        "id": 13653,
        "name": "Falafel Mix",
        "created_at": "2025-12-23T19:05:06.452000Z",
        "updated_at": "2026-01-10T14:23:01.011000Z"
      },
      {
        "id": 13652,
        "name": "Vivera Plant Meatballs",
        "created_at": "2025-12-23T19:05:05.869000Z",
        "updated_at": "2026-01-10T14:23:01.010000Z"
      },
      {
        "id": 13651,
        "name": "Steamed Coconut Basmati Rice",
        "created_at": "2025-12-23T19:05:05.645000Z",
        "updated_at": "2026-01-10T14:23:01.009000Z"
      },
      {
        "id": 13650,
        "name": "Pad Thai Paste",
        "created_at": "2025-12-23T19:05:05.614000Z",
        "updated_at": "2026-01-10T14:23:01.008000Z"
      },
      {
        "id": 13649,
        "name": "Pork Roasting Joint",
        "created_at": "2025-12-23T19:05:05.567000Z",
        "updated_at": "2026-01-10T14:23:01.008000Z"
      },
      {
        "id": 13648,
        "name": "Cooked Pulled Chicken",
        "created_at": "2025-12-23T19:05:04.075000Z",
        "updated_at": "2026-01-10T14:23:01.007000Z"
      },
      {
        "id": 13647,
        "name": "Fusilli",
        "created_at": "2025-12-23T19:05:02.548000Z",
        "updated_at": "2026-01-18T01:17:55.419000Z"
      },
      {
        "id": 13646,
        "name": "Purple Sprouting Broccoli",
        "created_at": "2025-12-23T19:05:01.967000Z",
        "updated_at": "2026-01-10T14:23:01.005000Z"
      },
      {
        "id": 13645,
        "name": "Chicken Fillet",
        "created_at": "2025-12-23T19:05:01.219000Z",
        "updated_at": "2026-01-10T14:23:01.004000Z"
      },
      {
        "id": 13644,
        "name": "Beef Sizzler Steaks",
        "created_at": "2025-12-23T19:04:59.286000Z",
        "updated_at": "2026-01-10T14:23:01.004000Z"
      },
      {
        "id": 13643,
        "name": "Water for the Orzo",
        "created_at": "2025-12-23T19:04:58.211000Z",
        "updated_at": "2026-01-10T14:23:01.003000Z"
      },
      {
        "id": 13642,
        "name": "Vivera Plant Mince",
        "created_at": "2025-12-23T19:04:57.814000Z",
        "updated_at": "2026-01-10T14:23:01.002000Z"
      },
      {
        "id": 13641,
        "name": "Ketchup",
        "created_at": "2025-12-23T19:04:57.376000Z",
        "updated_at": "2026-01-10T14:23:01.001000Z"
      },
      {
        "id": 13640,
        "name": "Wheat Penne Pasta",
        "created_at": "2025-12-23T19:04:56.613000Z",
        "updated_at": "2026-01-10T14:23:01.000000Z"
      },
      {
        "id": 13639,
        "name": "Red Lentils",
        "created_at": "2025-12-23T19:04:55.758000Z",
        "updated_at": "2026-01-10T14:23:01.000000Z"
      },
      {
        "id": 13638,
        "name": "Vivera Plant Quarter Pounder Burger",
        "created_at": "2025-12-23T19:04:54.520000Z",
        "updated_at": "2026-01-10T14:23:00.999000Z"
      },
      {
        "id": 13637,
        "name": "Hot Smoked Salmon",
        "created_at": "2025-12-23T19:04:54.078000Z",
        "updated_at": "2026-01-18T01:17:34.122000Z"
      },
      {
        "id": 13636,
        "name": "Steamed Lime & Coriander Basmati Rice",
        "created_at": "2025-12-23T19:04:53.345000Z",
        "updated_at": "2026-01-10T14:23:00.997000Z"
      },
      {
        "id": 13635,
        "name": "Speciality Mushroom Mix",
        "created_at": "2025-12-23T19:04:51.587000Z",
        "updated_at": "2026-01-10T14:23:00.996000Z"
      },
      {
        "id": 13634,
        "name": "Olive Oil for the Feta",
        "created_at": "2025-12-23T19:04:50.655000Z",
        "updated_at": "2026-01-10T14:23:00.996000Z"
      },
      {
        "id": 13633,
        "name": "Boscaiola Sauce",
        "created_at": "2025-12-23T19:04:49.450000Z",
        "updated_at": "2026-01-10T14:23:00.995000Z"
      },
      {
        "id": 13632,
        "name": "Sundried Tomatoes",
        "created_at": "2025-12-23T19:04:46.238000Z",
        "updated_at": "2026-01-10T14:23:00.994000Z"
      },
      {
        "id": 13631,
        "name": "Parisienne Style Herbs",
        "created_at": "2025-12-23T19:04:46.178000Z",
        "updated_at": "2026-01-10T14:23:00.993000Z"
      },
      {
        "id": 13630,
        "name": "Frank's RedHot Original",
        "created_at": "2025-12-23T19:04:45.894000Z",
        "updated_at": "2026-01-10T14:23:00.992000Z"
      },
      {
        "id": 13629,
        "name": "Coconut Chilli Lemongrass Steamed Basmati Rice",
        "created_at": "2025-12-23T19:04:45.582000Z",
        "updated_at": "2026-01-10T14:23:00.992000Z"
      },
      {
        "id": 13628,
        "name": "Crumpet",
        "created_at": "2025-12-23T19:04:44.694000Z",
        "updated_at": "2026-01-10T14:23:00.991000Z"
      },
      {
        "id": 13627,
        "name": "Sweet Potato Fries",
        "created_at": "2025-12-23T19:04:43.982000Z",
        "updated_at": "2026-01-10T14:23:00.990000Z"
      },
      {
        "id": 13626,
        "name": "Seeded Roll",
        "created_at": "2025-12-23T19:04:43.969000Z",
        "updated_at": "2026-01-10T14:23:00.989000Z"
      },
      {
        "id": 13625,
        "name": "Noodles",
        "created_at": "2025-12-23T19:04:43.417000Z",
        "updated_at": "2026-01-10T14:23:00.989000Z"
      },
      {
        "id": 13624,
        "name": "Foccacia",
        "created_at": "2025-12-23T19:04:43.140000Z",
        "updated_at": "2026-01-10T14:23:00.988000Z"
      },
      {
        "id": 13623,
        "name": "Pancakes",
        "created_at": "2025-12-23T19:04:43.106000Z",
        "updated_at": "2026-01-10T14:23:00.987000Z"
      },
      {
        "id": 13622,
        "name": "Mini Sourdough Cob",
        "created_at": "2025-12-23T19:04:43.092000Z",
        "updated_at": "2026-01-18T01:15:12.795000Z"
      },
      {
        "id": 13621,
        "name": "Venison Mince",
        "created_at": "2025-12-23T19:04:42.620000Z",
        "updated_at": "2026-01-10T14:23:00.985000Z"
      },
      {
        "id": 13620,
        "name": "Cooked Marinated Chicken Slices",
        "created_at": "2025-12-23T19:04:41.734000Z",
        "updated_at": "2026-01-10T14:23:00.985000Z"
      },
      {
        "id": 13619,
        "name": "Croutons",
        "created_at": "2025-12-23T19:04:41.721000Z",
        "updated_at": "2026-01-10T14:23:00.984000Z"
      },
      {
        "id": 13618,
        "name": "Potato Water",
        "created_at": "2025-12-23T19:04:41.681000Z",
        "updated_at": "2026-01-10T14:23:00.983000Z"
      },
      {
        "id": 13617,
        "name": "Maldon Sea Salt",
        "created_at": "2025-12-23T19:04:41.172000Z",
        "updated_at": "2026-01-10T14:23:00.982000Z"
      },
      {
        "id": 13616,
        "name": "Rainbow Chard",
        "created_at": "2025-12-23T19:04:40.500000Z",
        "updated_at": "2026-01-10T14:23:00.981000Z"
      },
      {
        "id": 13615,
        "name": "Chopped Tomatoes",
        "created_at": "2025-12-23T19:04:36.641000Z",
        "updated_at": "2026-01-10T14:23:00.981000Z"
      },
      {
        "id": 13614,
        "name": "Sour Cream",
        "created_at": "2025-12-23T19:04:36.539000Z",
        "updated_at": "2026-01-10T14:23:00.980000Z"
      },
      {
        "id": 13613,
        "name": "Mexican Spice",
        "created_at": "2025-12-23T19:04:36.527000Z",
        "updated_at": "2026-01-10T14:23:00.979000Z"
      },
      {
        "id": 13612,
        "name": "Cumin",
        "created_at": "2025-12-23T19:04:36.028000Z",
        "updated_at": "2026-01-10T14:23:00.978000Z"
      },
      {
        "id": 13611,
        "name": "Shallot",
        "created_at": "2025-12-23T19:04:34.890000Z",
        "updated_at": "2026-01-10T14:23:00.977000Z"
      },
      {
        "id": 13610,
        "name": "Whole Peeled Tomatoes",
        "created_at": "2025-12-23T19:04:34.567000Z",
        "updated_at": "2026-01-10T14:23:00.977000Z"
      },
      {
        "id": 13609,
        "name": "Turmeric",
        "created_at": "2025-12-23T19:04:33.861000Z",
        "updated_at": "2026-01-10T14:23:00.976000Z"
      },
      {
        "id": 13608,
        "name": "Boiling Water for the Stuffing",
        "created_at": "2025-12-23T19:04:33.617000Z",
        "updated_at": "2026-01-10T14:23:00.975000Z"
      },
      {
        "id": 13607,
        "name": "Paxo Stuffing",
        "created_at": "2025-12-23T19:04:33.599000Z",
        "updated_at": "2026-01-10T14:23:00.974000Z"
      }
    ],
    "meta": {
      "current_page": 10,
      "from": 451,
      "last_page": 23,
      "per_page": 50,
      "to": 500,
      "total": 1147
    }
  }
}