{
  "metadata": {
    "pull_date": "2026-01-23",
    "endpoint": "ingredients",
    "locale": "en-GB",
    "page": 5,
    "pulled_at_utc": "2026-01-23T22:35:10.439013"
  },
  "payload": {
    "data": [
      {
        "id": 14065,
        "name": "Organic Cannellini Beans",
        "created_at": "2025-12-23T19:06:02.736000Z",
        "updated_at": "2026-01-10T14:23:01.207000Z"
      },
      {
        "id": 14064,
        "name": "Organic Black Beans",
        "created_at": "2025-12-23T19:06:02.579000Z",
        "updated_at": "2026-01-10T14:23:01.206000Z"
      },
      {
        "id": 14063,
        "name": "Rhubarb",
        "created_at": "2025-12-23T19:06:02.566000Z",
        "updated_at": "2026-01-10T14:23:01.206000Z"
      },
      {
        "id": 14062,
        "name": "Smoked Cheese",
        "created_at": "2025-12-23T19:06:02.114000Z",
        "updated_at": "2026-01-10T14:23:01.205000Z"
      },
      {
        "id": 14061,
        "name": "Jerk Sauce",
        "created_at": "2025-12-23T19:06:01.991000Z",
        "updated_at": "2026-01-10T14:23:01.205000Z"
      },
      {
        "id": 14060,
        "name": "Pork Belly Rashers",
        "created_at": "2025-12-23T19:06:01.920000Z",
        "updated_at": "2026-01-10T14:23:01.204000Z"
      },
      {
        "id": 14059,
        "name": "Lambs Lettuce and Bulls Blood Leaves",
        "created_at": "2025-12-23T19:06:01.850000Z",
        "updated_at": "2026-01-10T14:23:01.203000Z"
      },
      {
        "id": 14058,
        "name": "Marjoram",
        "created_at": "2025-12-23T19:06:01.847000Z",
        "updated_at": "2026-01-10T14:23:01.203000Z"
      },
      {
        "id": 14057,
        "name": "Organic Lentils",
        "created_at": "2025-12-23T19:06:01.786000Z",
        "updated_at": "2026-01-10T14:23:01.202000Z"
      },
      {
        "id": 14056,
        "name": "Argentinian Chimichurri Dressing",
        "created_at": "2025-12-23T19:06:01.638000Z",
        "updated_at": "2026-01-10T14:23:01.202000Z"
      },
      {
        "id": 14055,
        "name": "Mixed Salad",
        "created_at": "2025-12-23T19:06:01.631000Z",
        "updated_at": "2026-01-10T14:23:01.201000Z"
      },
      {
        "id": 14054,
        "name": "Gooseberries",
        "created_at": "2025-12-23T19:06:01.627000Z",
        "updated_at": "2026-01-10T14:23:01.201000Z"
      },
      {
        "id": 14053,
        "name": "Pork Fillet",
        "created_at": "2025-12-23T19:06:01.528000Z",
        "updated_at": "2026-01-10T14:23:01.200000Z"
      },
      {
        "id": 14052,
        "name": "Romanesco",
        "created_at": "2025-12-23T19:06:01.250000Z",
        "updated_at": "2026-01-10T14:23:01.199000Z"
      },
      {
        "id": 14051,
        "name": "Cassava",
        "created_at": "2025-12-23T19:06:01.233000Z",
        "updated_at": "2026-01-10T14:23:01.199000Z"
      },
      {
        "id": 14050,
        "name": "Seville Orange & Honey Dressing",
        "created_at": "2025-12-23T19:06:01.101000Z",
        "updated_at": "2026-01-10T14:23:01.198000Z"
      },
      {
        "id": 14049,
        "name": "Maris Piper Potatoes",
        "created_at": "2025-12-23T19:06:01.000000Z",
        "updated_at": "2026-01-10T14:23:01.198000Z"
      },
      {
        "id": 14048,
        "name": "Yeast",
        "created_at": "2025-12-23T19:06:00.922000Z",
        "updated_at": "2026-01-10T14:23:01.197000Z"
      },
      {
        "id": 14047,
        "name": "Broad beans",
        "created_at": "2025-12-23T19:06:00.754000Z",
        "updated_at": "2026-01-10T14:23:01.197000Z"
      },
      {
        "id": 14046,
        "name": "Kohlrabi",
        "created_at": "2025-12-23T19:06:00.661000Z",
        "updated_at": "2026-01-10T14:23:01.196000Z"
      },
      {
        "id": 14045,
        "name": "King Edward Potato",
        "created_at": "2025-12-23T19:06:00.592000Z",
        "updated_at": "2026-01-10T14:23:01.196000Z"
      },
      {
        "id": 14044,
        "name": "Purple potato 700g",
        "created_at": "2025-12-23T19:06:00.447000Z",
        "updated_at": "2026-01-10T14:23:01.195000Z"
      },
      {
        "id": 14042,
        "name": "Purple Potato",
        "created_at": "2025-12-23T19:06:00.434000Z",
        "updated_at": "2026-01-10T14:23:01.194000Z"
      },
      {
        "id": 14043,
        "name": "Mild Paprika 1.5 tsp",
        "created_at": "2025-12-23T19:06:00.432000Z",
        "updated_at": "2026-01-10T14:23:01.194000Z"
      },
      {
        "id": 14041,
        "name": "Flatbread",
        "created_at": "2025-12-23T19:06:00.059000Z",
        "updated_at": "2026-01-10T14:23:01.193000Z"
      },
      {
        "id": 14040,
        "name": "Cocktail Sticks",
        "created_at": "2025-12-23T19:06:00.004000Z",
        "updated_at": "2026-01-10T14:23:01.193000Z"
      },
      {
        "id": 14039,
        "name": "Water for Cranberry Jam",
        "created_at": "2025-12-23T19:05:59.958000Z",
        "updated_at": "2026-01-10T14:23:01.192000Z"
      },
      {
        "id": 14038,
        "name": "Pork Chops",
        "created_at": "2025-12-23T19:05:59.945000Z",
        "updated_at": "2026-01-10T14:23:01.192000Z"
      },
      {
        "id": 14037,
        "name": "Cloves",
        "created_at": "2025-12-23T19:05:59.927000Z",
        "updated_at": "2026-01-10T14:23:01.191000Z"
      },
      {
        "id": 14036,
        "name": "Kalettes",
        "created_at": "2025-12-23T19:05:59.620000Z",
        "updated_at": "2026-01-10T14:23:01.191000Z"
      },
      {
        "id": 14035,
        "name": "Sri Lankan Spice Blend",
        "created_at": "2025-12-23T19:05:59.441000Z",
        "updated_at": "2026-01-10T14:23:01.190000Z"
      },
      {
        "id": 14034,
        "name": "White Flesh Sweet Potato",
        "created_at": "2025-12-23T19:05:59.101000Z",
        "updated_at": "2026-01-10T14:23:01.189000Z"
      },
      {
        "id": 14033,
        "name": "Tuscan Pork Sausage Meat",
        "created_at": "2025-12-23T19:05:58.267000Z",
        "updated_at": "2026-01-10T14:23:01.189000Z"
      },
      {
        "id": 14032,
        "name": "Conchiglioni",
        "created_at": "2025-12-23T19:05:58.247000Z",
        "updated_at": "2026-01-10T14:23:01.188000Z"
      },
      {
        "id": 14031,
        "name": "Wholewheat Couscous",
        "created_at": "2025-12-23T19:05:57.991000Z",
        "updated_at": "2026-01-10T14:23:01.188000Z"
      },
      {
        "id": 14030,
        "name": "Plum Tomatoes",
        "created_at": "2025-12-23T19:05:57.797000Z",
        "updated_at": "2026-01-10T14:23:01.187000Z"
      },
      {
        "id": 14029,
        "name": "Spicy Sausage",
        "created_at": "2025-12-23T19:05:57.726000Z",
        "updated_at": "2026-01-10T14:23:01.187000Z"
      },
      {
        "id": 14028,
        "name": "Craisin",
        "created_at": "2025-12-23T19:05:57.660000Z",
        "updated_at": "2026-01-10T14:23:01.186000Z"
      },
      {
        "id": 14027,
        "name": "Haddock Fillet",
        "created_at": "2025-12-23T19:05:57.354000Z",
        "updated_at": "2026-01-10T14:23:01.185000Z"
      },
      {
        "id": 14026,
        "name": "Allspice",
        "created_at": "2025-12-23T19:05:57.344000Z",
        "updated_at": "2026-01-10T14:23:01.185000Z"
      },
      {
        "id": 14025,
        "name": "Flank Steak",
        "created_at": "2025-12-23T19:05:57.066000Z",
        "updated_at": "2026-01-18T01:18:20.492000Z"
      },
      {
        "id": 14024,
        "name": "Braeburn Apple",
        "created_at": "2025-12-23T19:05:56.804000Z",
        "updated_at": "2026-01-10T14:23:01.184000Z"
      },
      {
        "id": 14023,
        "name": "Grilled Artichoke",
        "created_at": "2025-12-23T19:05:56.602000Z",
        "updated_at": "2026-01-10T14:23:01.183000Z"
      },
      {
        "id": 14022,
        "name": "Curry Leaves",
        "created_at": "2025-12-23T19:05:56.572000Z",
        "updated_at": "2026-01-10T14:23:01.183000Z"
      },
      {
        "id": 14021,
        "name": "Tamarind Sauce",
        "created_at": "2025-12-23T19:05:56.301000Z",
        "updated_at": "2026-01-10T14:23:01.182000Z"
      },
      {
        "id": 14020,
        "name": "Tracklements Apple and sage Jelly",
        "created_at": "2025-12-23T19:05:56.003000Z",
        "updated_at": "2026-01-10T14:23:01.182000Z"
      },
      {
        "id": 14019,
        "name": "Munchy Seeds: Sesame Sprinkle",
        "created_at": "2025-12-23T19:05:55.737000Z",
        "updated_at": "2026-01-10T14:23:01.181000Z"
      },
      {
        "id": 14018,
        "name": "Wheat Tagliatelle",
        "created_at": "2025-12-23T19:05:55.571000Z",
        "updated_at": "2026-01-10T14:23:01.180000Z"
      },
      {
        "id": 14017,
        "name": "Oregano",
        "created_at": "2025-12-23T19:05:55.123000Z",
        "updated_at": "2026-01-10T14:23:01.180000Z"
      },
      {
        "id": 14016,
        "name": "Pitted Black Olives",
        "created_at": "2025-12-23T19:05:54.794000Z",
        "updated_at": "2026-01-10T14:23:01.179000Z"
      }
    ],
    "meta": {
      "current_page": 5,
      "from": 201,
      "last_page": 23,
      "per_page": 50,
      "to": 250,
      "total": 1147
    }
  }
}