{
  "metadata": {
    "pull_date": "2026-01-23",
    "endpoint": "ingredients",
    "locale": "en-GB",
    "page": 8,
    "pulled_at_utc": "2026-01-23T22:35:11.166370"
  },
  "payload": {
    "data": [
      {
        "id": 13915,
        "name": "Flour Tortillas",
        "created_at": "2025-12-23T19:05:44.797000Z",
        "updated_at": "2026-01-18T01:17:57.162000Z"
      },
      {
        "id": 13914,
        "name": "Sunflower Seeds",
        "created_at": "2025-12-23T19:05:44.694000Z",
        "updated_at": "2026-01-10T14:23:01.098000Z"
      },
      {
        "id": 13913,
        "name": "Caramelised Red Onion Relish",
        "created_at": "2025-12-23T19:05:44.613000Z",
        "updated_at": "2026-01-10T14:23:01.097000Z"
      },
      {
        "id": 13912,
        "name": "Thai Garnish",
        "created_at": "2025-12-23T19:05:43.800000Z",
        "updated_at": "2026-01-10T14:23:01.096000Z"
      },
      {
        "id": 13911,
        "name": "Truffle Powder",
        "created_at": "2025-12-23T19:05:43.606000Z",
        "updated_at": "2026-01-10T14:23:01.095000Z"
      },
      {
        "id": 13910,
        "name": "Turkey Wings",
        "created_at": "2025-12-23T19:05:43.591000Z",
        "updated_at": "2026-01-10T14:23:01.094000Z"
      },
      {
        "id": 13909,
        "name": "Pecan Nuts",
        "created_at": "2025-12-23T19:05:43.568000Z",
        "updated_at": "2026-01-10T14:23:01.093000Z"
      },
      {
        "id": 13908,
        "name": "Polenta",
        "created_at": "2025-12-23T19:05:43.515000Z",
        "updated_at": "2026-01-10T14:23:01.092000Z"
      },
      {
        "id": 13907,
        "name": "Chicken Drumstick",
        "created_at": "2025-12-23T19:05:43.483000Z",
        "updated_at": "2026-01-10T14:23:01.091000Z"
      },
      {
        "id": 13747,
        "name": "New Potatoes",
        "created_at": "2025-12-23T19:05:38.770000Z",
        "updated_at": "2026-01-10T14:23:01.090000Z"
      },
      {
        "id": 13746,
        "name": "Basil",
        "created_at": "2025-12-23T19:05:38.713000Z",
        "updated_at": "2026-01-10T14:23:01.090000Z"
      },
      {
        "id": 13745,
        "name": "Chicken Stock Pot",
        "created_at": "2025-12-23T19:05:38.691000Z",
        "updated_at": "2026-01-10T14:23:01.089000Z"
      },
      {
        "id": 13744,
        "name": "Borlotti Beans",
        "created_at": "2025-12-23T19:05:38.601000Z",
        "updated_at": "2026-01-10T14:23:01.088000Z"
      },
      {
        "id": 13743,
        "name": "Panang Curry Paste",
        "created_at": "2025-12-23T19:05:38.340000Z",
        "updated_at": "2026-01-10T14:23:01.087000Z"
      },
      {
        "id": 13742,
        "name": "Puntalette Pasta",
        "created_at": "2025-12-23T19:05:38.074000Z",
        "updated_at": "2026-01-10T14:23:01.086000Z"
      },
      {
        "id": 13741,
        "name": "Wholewheat Spaghetti",
        "created_at": "2025-12-23T19:05:37.980000Z",
        "updated_at": "2026-01-10T14:23:01.085000Z"
      },
      {
        "id": 13740,
        "name": "Jackfruit",
        "created_at": "2025-12-23T19:05:37.476000Z",
        "updated_at": "2026-01-10T14:23:01.084000Z"
      },
      {
        "id": 13739,
        "name": "Malay Curry Powder",
        "created_at": "2025-12-23T19:05:37.386000Z",
        "updated_at": "2026-01-10T14:23:01.084000Z"
      },
      {
        "id": 13738,
        "name": "Butternut Squash Noodles",
        "created_at": "2025-12-23T19:05:37.230000Z",
        "updated_at": "2026-01-10T14:23:01.083000Z"
      },
      {
        "id": 13737,
        "name": "Hot Habanero Salsa",
        "created_at": "2025-12-23T19:05:37.178000Z",
        "updated_at": "2026-01-10T14:23:01.081000Z"
      },
      {
        "id": 13736,
        "name": "Sabzi Ghormeg",
        "created_at": "2025-12-23T19:05:37.021000Z",
        "updated_at": "2026-01-10T14:23:01.080000Z"
      },
      {
        "id": 13735,
        "name": "Spiced Honey Mustard",
        "created_at": "2025-12-23T19:05:36.929000Z",
        "updated_at": "2026-01-18T01:17:39.986000Z"
      },
      {
        "id": 13734,
        "name": "Coconut & Chilli Marinated Chicken Breast",
        "created_at": "2025-12-23T19:05:36.892000Z",
        "updated_at": "2026-01-10T14:23:01.078000Z"
      },
      {
        "id": 13733,
        "name": "Pearl Barley",
        "created_at": "2025-12-23T19:05:36.673000Z",
        "updated_at": "2026-01-18T01:17:26.279000Z"
      },
      {
        "id": 13731,
        "name": "Smoked Fish Mix",
        "created_at": "2025-12-23T19:05:36.533000Z",
        "updated_at": "2026-01-18T01:17:42.565000Z"
      },
      {
        "id": 13732,
        "name": "Freekeh",
        "created_at": "2025-12-23T19:05:36.531000Z",
        "updated_at": "2026-01-10T14:23:01.076000Z"
      },
      {
        "id": 13730,
        "name": "Lamb Rump",
        "created_at": "2025-12-23T19:05:36.249000Z",
        "updated_at": "2026-01-10T14:23:01.074000Z"
      },
      {
        "id": 13729,
        "name": "Pomegranate Pork Loin",
        "created_at": "2025-12-23T19:05:36.095000Z",
        "updated_at": "2026-01-10T14:23:01.072000Z"
      },
      {
        "id": 13728,
        "name": "Pomegranate Pork Steak",
        "created_at": "2025-12-23T19:05:36.087000Z",
        "updated_at": "2026-01-10T14:23:01.071000Z"
      },
      {
        "id": 13727,
        "name": "Teriyaki Pork Steak",
        "created_at": "2025-12-23T19:05:35.464000Z",
        "updated_at": "2026-01-10T14:23:01.070000Z"
      },
      {
        "id": 13726,
        "name": "Teriyaki Pork Loin",
        "created_at": "2025-12-23T19:05:35.444000Z",
        "updated_at": "2026-01-10T14:23:01.069000Z"
      },
      {
        "id": 13725,
        "name": "Tagliatelle",
        "created_at": "2025-12-23T19:05:35.265000Z",
        "updated_at": "2026-01-10T14:23:01.068000Z"
      },
      {
        "id": 13724,
        "name": "Whiting Fillet",
        "created_at": "2025-12-23T19:05:35.158000Z",
        "updated_at": "2026-01-10T14:23:01.067000Z"
      },
      {
        "id": 13723,
        "name": "Harissa Spice Mix",
        "created_at": "2025-12-23T19:05:35.108000Z",
        "updated_at": "2026-01-10T14:23:01.067000Z"
      },
      {
        "id": 13722,
        "name": "Turkey Strips",
        "created_at": "2025-12-23T19:05:35.064000Z",
        "updated_at": "2026-01-10T14:23:01.066000Z"
      },
      {
        "id": 13721,
        "name": "Bay Leaf",
        "created_at": "2025-12-23T19:05:34.982000Z",
        "updated_at": "2026-01-10T14:23:01.065000Z"
      },
      {
        "id": 13720,
        "name": "Diced British Turkey Breast",
        "created_at": "2025-12-23T19:05:34.634000Z",
        "updated_at": "2026-01-10T14:23:01.064000Z"
      },
      {
        "id": 13719,
        "name": "Ham Hock",
        "created_at": "2025-12-23T19:05:34.528000Z",
        "updated_at": "2026-01-10T14:23:01.063000Z"
      },
      {
        "id": 13718,
        "name": "Olive Oil for the Couscous",
        "created_at": "2025-12-23T19:05:33.856000Z",
        "updated_at": "2026-01-18T01:17:26.381000Z"
      },
      {
        "id": 13717,
        "name": "Half-Fat Mature Cheddar Cheese",
        "created_at": "2025-12-23T19:05:33.562000Z",
        "updated_at": "2026-01-10T14:23:01.061000Z"
      },
      {
        "id": 13716,
        "name": "Swordfish",
        "created_at": "2025-12-23T19:05:33.535000Z",
        "updated_at": "2026-01-10T14:23:01.060000Z"
      },
      {
        "id": 13715,
        "name": "Red Bullet Chilli",
        "created_at": "2025-12-23T19:05:33.357000Z",
        "updated_at": "2026-01-10T14:23:01.059000Z"
      },
      {
        "id": 13714,
        "name": "Chipotle Ketchup",
        "created_at": "2025-12-23T19:05:33.193000Z",
        "updated_at": "2026-01-18T01:17:31.229000Z"
      },
      {
        "id": 13713,
        "name": "British Turkey Steaks",
        "created_at": "2025-12-23T19:05:32.983000Z",
        "updated_at": "2026-01-10T14:23:01.058000Z"
      },
      {
        "id": 13712,
        "name": "Cider & Horseradish Wholegrain Mustard",
        "created_at": "2025-12-23T19:05:32.927000Z",
        "updated_at": "2026-01-18T01:17:34.477000Z"
      },
      {
        "id": 13711,
        "name": "Flora Original",
        "created_at": "2025-12-23T19:05:32.818000Z",
        "updated_at": "2026-01-10T14:23:01.056000Z"
      },
      {
        "id": 13710,
        "name": "Poppy Seeds",
        "created_at": "2025-12-23T19:05:32.646000Z",
        "updated_at": "2026-01-10T14:23:01.055000Z"
      },
      {
        "id": 13709,
        "name": "Brazil Nuts",
        "created_at": "2025-12-23T19:05:32.370000Z",
        "updated_at": "2026-01-18T01:17:54.985000Z"
      },
      {
        "id": 13708,
        "name": "Wholewheat Penne",
        "created_at": "2025-12-23T19:05:32.168000Z",
        "updated_at": "2026-01-10T14:23:01.054000Z"
      },
      {
        "id": 13707,
        "name": "Pork and Cranberry Stuffing",
        "created_at": "2025-12-23T19:05:31.661000Z",
        "updated_at": "2026-01-10T14:23:01.053000Z"
      }
    ],
    "meta": {
      "current_page": 8,
      "from": 351,
      "last_page": 23,
      "per_page": 50,
      "to": 400,
      "total": 1147
    }
  }
}