{
  "metadata": {
    "pull_date": "2026-01-23",
    "endpoint": "ingredients",
    "locale": "en-GB",
    "page": 14,
    "pulled_at_utc": "2026-01-23T22:35:12.590168"
  },
  "payload": {
    "data": [
      {
        "id": 13400,
        "name": "Mixed Peppers and Red Onion",
        "created_at": "2025-12-23T19:01:42.057000Z",
        "updated_at": "2026-01-10T14:23:00.848000Z"
      },
      {
        "id": 13399,
        "name": "Oil for the Tomatoes",
        "created_at": "2025-12-23T19:01:41.327000Z",
        "updated_at": "2026-01-10T14:23:00.847000Z"
      },
      {
        "id": 13398,
        "name": "Sliced Burger Buns",
        "created_at": "2025-12-23T19:01:40.436000Z",
        "updated_at": "2026-01-10T14:23:00.846000Z"
      },
      {
        "id": 13397,
        "name": "All the Greens Veg Side",
        "created_at": "2025-12-23T19:01:39.567000Z",
        "updated_at": "2026-01-10T14:23:00.845000Z"
      },
      {
        "id": 13396,
        "name": "Baby Corn, Greens & Carrots",
        "created_at": "2025-12-23T19:01:39.563000Z",
        "updated_at": "2026-01-10T14:23:00.845000Z"
      },
      {
        "id": 13395,
        "name": "Green Chilli",
        "created_at": "2025-12-23T19:01:35.602000Z",
        "updated_at": "2026-01-10T14:23:00.844000Z"
      },
      {
        "id": 13394,
        "name": "Steamed Brown Basmati Rice",
        "created_at": "2025-12-23T19:01:34.720000Z",
        "updated_at": "2026-01-10T14:23:00.843000Z"
      },
      {
        "id": 13393,
        "name": "Honey and Mustard Dressing",
        "created_at": "2025-12-23T19:01:29.949000Z",
        "updated_at": "2026-01-10T14:23:00.842000Z"
      },
      {
        "id": 13392,
        "name": "Riced Cauliflower",
        "created_at": "2025-12-23T19:01:29.827000Z",
        "updated_at": "2026-01-10T14:23:00.841000Z"
      },
      {
        "id": 13386,
        "name": "Cannellini Beans",
        "created_at": "2025-12-23T19:01:22.841000Z",
        "updated_at": "2026-01-10T14:23:00.840000Z"
      },
      {
        "id": 13385,
        "name": "Iceberg Lettuce",
        "created_at": "2025-12-23T19:01:22.248000Z",
        "updated_at": "2026-01-10T14:23:00.839000Z"
      },
      {
        "id": 13384,
        "name": "Mini Cucumber",
        "created_at": "2025-12-23T19:01:21.986000Z",
        "updated_at": "2026-01-10T14:23:00.839000Z"
      },
      {
        "id": 13364,
        "name": "French Dressing",
        "created_at": "2025-12-23T19:01:15.902000Z",
        "updated_at": "2026-01-10T14:23:00.838000Z"
      },
      {
        "id": 13363,
        "name": "Cauliflower Cheese",
        "created_at": "2025-12-23T19:01:15.887000Z",
        "updated_at": "2026-01-10T14:23:00.837000Z"
      },
      {
        "id": 13362,
        "name": "Itsu chicken ramen brilliant’broth",
        "created_at": "2025-12-23T19:01:15.753000Z",
        "updated_at": "2026-01-10T14:23:00.836000Z"
      },
      {
        "id": 13340,
        "name": "Itsu ramen’noodles",
        "created_at": "2025-12-23T19:01:08.002000Z",
        "updated_at": "2026-01-10T14:23:00.835000Z"
      },
      {
        "id": 13330,
        "name": "Water for the Stock",
        "created_at": "2025-12-23T19:01:02.417000Z",
        "updated_at": "2026-01-17T12:03:29.761000Z"
      },
      {
        "id": 13310,
        "name": "Mangetout",
        "created_at": "2025-12-23T19:00:54.078000Z",
        "updated_at": "2026-01-10T14:23:00.833000Z"
      },
      {
        "id": 13308,
        "name": "Pistachios",
        "created_at": "2025-12-23T19:00:53.295000Z",
        "updated_at": "2026-01-18T01:17:04.584000Z"
      },
      {
        "id": 13306,
        "name": "Sugar Snap Peas",
        "created_at": "2025-12-23T19:00:53.283000Z",
        "updated_at": "2026-01-10T14:23:00.832000Z"
      },
      {
        "id": 13281,
        "name": "Scallops",
        "created_at": "2025-12-23T19:00:40.964000Z",
        "updated_at": "2026-01-10T14:23:00.831000Z"
      },
      {
        "id": 13278,
        "name": "Plain Flour for the potatoes",
        "created_at": "2025-12-23T19:00:37.301000Z",
        "updated_at": "2026-01-18T01:17:26.107000Z"
      },
      {
        "id": 11648,
        "name": "Dauphinoise Potatoes",
        "created_at": "2025-12-23T18:51:30.335000Z",
        "updated_at": "2026-01-10T14:23:00.829000Z"
      },
      {
        "id": 11644,
        "name": "Diced British Chicken Thigh",
        "created_at": "2025-12-23T18:51:29.303000Z",
        "updated_at": "2026-01-10T14:23:00.828000Z"
      },
      {
        "id": 11569,
        "name": "Icing Sugar",
        "created_at": "2025-12-23T18:51:06.710000Z",
        "updated_at": "2026-01-10T14:23:00.827000Z"
      },
      {
        "id": 11465,
        "name": "Wholewheat Noodles",
        "created_at": "2025-12-23T18:50:35.123000Z",
        "updated_at": "2026-01-10T14:23:00.826000Z"
      },
      {
        "id": 11377,
        "name": "Water for the Fritters",
        "created_at": "2025-12-23T18:50:15.259000Z",
        "updated_at": "2026-01-10T14:23:00.825000Z"
      },
      {
        "id": 11348,
        "name": "Natural Coconut Milk Yoghurt Alternative",
        "created_at": "2025-12-23T18:50:06.071000Z",
        "updated_at": "2026-01-10T14:23:00.825000Z"
      },
      {
        "id": 11347,
        "name": "Granola",
        "created_at": "2025-12-23T18:50:06.050000Z",
        "updated_at": "2026-01-10T14:23:00.824000Z"
      },
      {
        "id": 10765,
        "name": "THIS™ Isn't Chicken Plant-Based Pieces",
        "created_at": "2025-12-23T18:47:43.974000Z",
        "updated_at": "2026-01-10T14:23:00.823000Z"
      },
      {
        "id": 10672,
        "name": "McCain Home Chips",
        "created_at": "2025-12-23T18:47:26.457000Z",
        "updated_at": "2026-01-10T14:23:00.822000Z"
      },
      {
        "id": 10653,
        "name": "Boiled Water for the Laksa",
        "created_at": "2025-12-23T18:47:21.280000Z",
        "updated_at": "2026-01-10T14:23:00.821000Z"
      },
      {
        "id": 10650,
        "name": "Chicken Gyozas",
        "created_at": "2025-12-23T18:47:20.591000Z",
        "updated_at": "2026-01-10T14:23:00.820000Z"
      },
      {
        "id": 10623,
        "name": "Oil",
        "created_at": "2025-12-23T18:47:10.225000Z",
        "updated_at": "2026-01-10T14:23:00.819000Z"
      },
      {
        "id": 10611,
        "name": "Finely Chopped Tomatoes",
        "created_at": "2025-12-23T18:46:58.239000Z",
        "updated_at": "2026-01-10T14:23:00.819000Z"
      },
      {
        "id": 10561,
        "name": "Olive Oil for the Pil Pil",
        "created_at": "2025-12-23T18:46:47.487000Z",
        "updated_at": "2026-01-10T14:23:00.818000Z"
      },
      {
        "id": 10429,
        "name": "Ready to Eat Falafels",
        "created_at": "2025-12-23T18:46:14.674000Z",
        "updated_at": "2026-01-10T14:23:00.817000Z"
      },
      {
        "id": 10428,
        "name": "Water for the Risotto",
        "created_at": "2025-12-23T18:46:14.381000Z",
        "updated_at": "2026-01-10T14:23:00.816000Z"
      },
      {
        "id": 10390,
        "name": "Water for the Veg",
        "created_at": "2025-12-23T18:46:10.312000Z",
        "updated_at": "2026-01-10T14:23:00.815000Z"
      },
      {
        "id": 10363,
        "name": "Pea Shoots",
        "created_at": "2025-12-23T18:46:01.992000Z",
        "updated_at": "2026-01-10T14:23:00.814000Z"
      },
      {
        "id": 10262,
        "name": "Pomegranate Molasses",
        "created_at": "2025-12-23T18:45:34.737000Z",
        "updated_at": "2026-01-10T14:23:00.813000Z"
      },
      {
        "id": 10108,
        "name": "Premium Tomato Mix",
        "created_at": "2025-12-23T18:44:36.211000Z",
        "updated_at": "2026-01-10T14:23:00.813000Z"
      },
      {
        "id": 10102,
        "name": "Tortilla Chips",
        "created_at": "2025-12-23T18:44:33.988000Z",
        "updated_at": "2026-01-10T14:23:00.812000Z"
      },
      {
        "id": 10006,
        "name": "Oil for the Sauce",
        "created_at": "2025-12-23T18:44:09.694000Z",
        "updated_at": "2026-01-10T14:23:00.811000Z"
      },
      {
        "id": 9746,
        "name": "Asian Broth Paste",
        "created_at": "2025-12-23T18:43:21.295000Z",
        "updated_at": "2026-01-18T00:09:09.780000Z"
      },
      {
        "id": 9655,
        "name": "Sea Bass Fillets",
        "created_at": "2025-12-23T18:43:04.281000Z",
        "updated_at": "2026-01-10T14:23:00.809000Z"
      },
      {
        "id": 9535,
        "name": "Waffle Amour Sugar Pearl Waffles",
        "created_at": "2025-12-23T18:42:36.643000Z",
        "updated_at": "2026-01-18T00:16:50.751000Z"
      },
      {
        "id": 9534,
        "name": "Water for the Dough",
        "created_at": "2025-12-23T18:42:35.827000Z",
        "updated_at": "2026-01-10T14:23:00.807000Z"
      },
      {
        "id": 9533,
        "name": "Salt for the Dough",
        "created_at": "2025-12-23T18:42:35.816000Z",
        "updated_at": "2026-01-10T14:23:00.807000Z"
      },
      {
        "id": 9532,
        "name": "Water for the Mayo",
        "created_at": "2025-12-23T18:42:35.229000Z",
        "updated_at": "2026-01-10T14:23:00.806000Z"
      }
    ],
    "meta": {
      "current_page": 14,
      "from": 651,
      "last_page": 23,
      "per_page": 50,
      "to": 700,
      "total": 1147
    }
  }
}