{
  "metadata": {
    "pull_date": "2026-01-23",
    "endpoint": "ingredients",
    "locale": "en-GB",
    "page": 12,
    "pulled_at_utc": "2026-01-23T22:35:12.131089"
  },
  "payload": {
    "data": [
      {
        "id": 13550,
        "name": "Pesto Dressing",
        "created_at": "2025-12-23T19:04:16.638000Z",
        "updated_at": "2026-01-10T14:23:00.935000Z"
      },
      {
        "id": 13549,
        "name": "Black Garlic Cloves",
        "created_at": "2025-12-23T19:04:16.534000Z",
        "updated_at": "2026-01-10T14:23:00.934000Z"
      },
      {
        "id": 13548,
        "name": "Caramelised Onion Sausages",
        "created_at": "2025-12-23T19:04:16.255000Z",
        "updated_at": "2026-01-18T01:17:31.604000Z"
      },
      {
        "id": 13547,
        "name": "Lambs Lettuce and Bulls Blood Mix",
        "created_at": "2025-12-23T19:04:15.469000Z",
        "updated_at": "2026-01-10T14:23:00.932000Z"
      },
      {
        "id": 13546,
        "name": "Oil for the Bread",
        "created_at": "2025-12-23T19:04:15.454000Z",
        "updated_at": "2026-01-10T14:23:00.931000Z"
      },
      {
        "id": 13545,
        "name": "Beetroot",
        "created_at": "2025-12-23T19:04:15.091000Z",
        "updated_at": "2026-01-18T01:13:41.850000Z"
      },
      {
        "id": 13544,
        "name": "Salmon Fillet",
        "created_at": "2025-12-23T19:04:15.083000Z",
        "updated_at": "2026-01-10T14:23:00.929000Z"
      },
      {
        "id": 13543,
        "name": "Double Gloucester",
        "created_at": "2025-12-23T19:04:14.469000Z",
        "updated_at": "2026-01-10T14:23:00.929000Z"
      },
      {
        "id": 13542,
        "name": "Chopped Chinese Leaf",
        "created_at": "2025-12-23T19:04:13.493000Z",
        "updated_at": "2026-01-10T14:23:00.928000Z"
      },
      {
        "id": 13541,
        "name": "Apple Chutney",
        "created_at": "2025-12-23T19:04:13.375000Z",
        "updated_at": "2026-01-10T14:23:00.927000Z"
      },
      {
        "id": 13540,
        "name": "Monterey Jack Cheese",
        "created_at": "2025-12-23T19:04:12.561000Z",
        "updated_at": "2026-01-10T14:23:00.926000Z"
      },
      {
        "id": 13539,
        "name": "Plain Taco Tortilla",
        "created_at": "2025-12-23T19:04:12.543000Z",
        "updated_at": "2026-01-10T14:23:00.925000Z"
      },
      {
        "id": 13538,
        "name": "Black Bean Sauce",
        "created_at": "2025-12-23T19:04:12.506000Z",
        "updated_at": "2026-01-18T01:17:57.153000Z"
      },
      {
        "id": 13537,
        "name": "Chicken Breast",
        "created_at": "2025-12-23T19:04:12.177000Z",
        "updated_at": "2026-01-10T14:23:00.923000Z"
      },
      {
        "id": 13536,
        "name": "Chicken Thigh",
        "created_at": "2025-12-23T19:04:12.039000Z",
        "updated_at": "2026-01-10T14:23:00.922000Z"
      },
      {
        "id": 13535,
        "name": "Red Chilli Flakes",
        "created_at": "2025-12-23T19:04:11.070000Z",
        "updated_at": "2026-01-10T14:23:00.922000Z"
      },
      {
        "id": 13534,
        "name": "Sweetcorn Ribs",
        "created_at": "2025-12-23T19:04:10.581000Z",
        "updated_at": "2026-01-10T14:23:00.921000Z"
      },
      {
        "id": 13533,
        "name": "Salt for the Koftas",
        "created_at": "2025-12-23T19:04:09.075000Z",
        "updated_at": "2026-01-10T14:23:00.920000Z"
      },
      {
        "id": 13532,
        "name": "Unsalted Roasted Peanuts",
        "created_at": "2025-12-23T19:04:08.681000Z",
        "updated_at": "2026-01-10T14:23:00.919000Z"
      },
      {
        "id": 13531,
        "name": "Middle Eastern Style Spice Mix",
        "created_at": "2025-12-23T19:04:07.805000Z",
        "updated_at": "2026-01-10T14:23:00.918000Z"
      },
      {
        "id": 13530,
        "name": "Jalfrezi Spice Mix",
        "created_at": "2025-12-23T19:04:06.275000Z",
        "updated_at": "2026-01-10T14:23:00.917000Z"
      },
      {
        "id": 13529,
        "name": "Mississippi Style Spice Mix",
        "created_at": "2025-12-23T19:03:58.550000Z",
        "updated_at": "2026-01-10T14:23:00.916000Z"
      },
      {
        "id": 13528,
        "name": "Tagine Paste",
        "created_at": "2025-12-23T19:03:58.386000Z",
        "updated_at": "2026-01-10T14:23:00.916000Z"
      },
      {
        "id": 13526,
        "name": "Quince Fruit Chutney",
        "created_at": "2025-12-23T19:03:58.169000Z",
        "updated_at": "2026-01-10T14:23:00.914000Z"
      },
      {
        "id": 13527,
        "name": "White Chocolate Chips",
        "created_at": "2025-12-23T19:03:58.168000Z",
        "updated_at": "2026-01-18T01:12:55.318000Z"
      },
      {
        "id": 13525,
        "name": "Water for the Pepper",
        "created_at": "2025-12-23T19:03:56.862000Z",
        "updated_at": "2026-01-10T14:23:00.913000Z"
      },
      {
        "id": 13524,
        "name": "Mild Paprika",
        "created_at": "2025-12-23T19:03:56.837000Z",
        "updated_at": "2026-01-10T14:23:00.912000Z"
      },
      {
        "id": 13523,
        "name": "Flaked Almonds",
        "created_at": "2025-12-23T19:03:56.422000Z",
        "updated_at": "2026-01-18T01:16:54.982000Z"
      },
      {
        "id": 13522,
        "name": "Chorizo",
        "created_at": "2025-12-23T19:03:56.125000Z",
        "updated_at": "2026-01-10T14:23:00.910000Z"
      },
      {
        "id": 13521,
        "name": "Tahini",
        "created_at": "2025-12-23T19:03:55.593000Z",
        "updated_at": "2026-01-18T01:17:59.073000Z"
      },
      {
        "id": 13520,
        "name": "Black Peppercorns",
        "created_at": "2025-12-23T19:03:54.344000Z",
        "updated_at": "2026-01-10T14:23:00.909000Z"
      },
      {
        "id": 13519,
        "name": "Diced Chicken Thigh",
        "created_at": "2025-12-23T19:03:54.031000Z",
        "updated_at": "2026-01-10T14:23:00.908000Z"
      },
      {
        "id": 13518,
        "name": "Tandoori Masala Spice",
        "created_at": "2025-12-23T19:03:53.943000Z",
        "updated_at": "2026-01-10T14:23:00.907000Z"
      },
      {
        "id": 13517,
        "name": "Diced Chicken Breast",
        "created_at": "2025-12-23T19:03:53.691000Z",
        "updated_at": "2026-01-10T14:23:00.906000Z"
      },
      {
        "id": 13516,
        "name": "Boiling Water for the Mushrooms",
        "created_at": "2025-12-23T19:03:52.907000Z",
        "updated_at": "2026-01-10T14:23:00.905000Z"
      },
      {
        "id": 13515,
        "name": "Dried Porcini Mushrooms",
        "created_at": "2025-12-23T19:03:52.862000Z",
        "updated_at": "2026-01-18T01:17:48.245000Z"
      },
      {
        "id": 13514,
        "name": "Sesame Seeds",
        "created_at": "2025-12-23T19:03:49.621000Z",
        "updated_at": "2026-01-18T01:17:48.503000Z"
      },
      {
        "id": 13513,
        "name": "Raisins",
        "created_at": "2025-12-23T19:03:48.787000Z",
        "updated_at": "2026-01-10T14:23:00.903000Z"
      },
      {
        "id": 13512,
        "name": "Cajun Blackening",
        "created_at": "2025-12-23T19:03:48.074000Z",
        "updated_at": "2026-01-18T01:17:32.977000Z"
      },
      {
        "id": 13511,
        "name": "Shawarma Seasoning Mix",
        "created_at": "2025-12-23T19:03:46.767000Z",
        "updated_at": "2026-01-10T14:23:00.901000Z"
      },
      {
        "id": 13510,
        "name": "Butter for the Mash",
        "created_at": "2025-12-23T19:03:45.684000Z",
        "updated_at": "2026-01-10T14:23:00.900000Z"
      },
      {
        "id": 13509,
        "name": "Chantenay Carrots",
        "created_at": "2025-12-23T19:03:45.381000Z",
        "updated_at": "2026-01-10T14:23:00.899000Z"
      },
      {
        "id": 13508,
        "name": "Dukkah Mix",
        "created_at": "2025-12-23T19:03:45.240000Z",
        "updated_at": "2026-01-18T01:17:43.693000Z"
      },
      {
        "id": 13507,
        "name": "Water for the Gratin",
        "created_at": "2025-12-23T19:03:40.994000Z",
        "updated_at": "2026-01-10T14:23:00.897000Z"
      },
      {
        "id": 13506,
        "name": "Baharat Spice Mix",
        "created_at": "2025-12-23T19:03:39.612000Z",
        "updated_at": "2026-01-10T14:23:00.896000Z"
      },
      {
        "id": 13505,
        "name": "Garam Masala",
        "created_at": "2025-12-23T19:03:38.897000Z",
        "updated_at": "2026-01-10T14:23:00.896000Z"
      },
      {
        "id": 13504,
        "name": "Provencal Herbs",
        "created_at": "2025-12-23T19:03:38.670000Z",
        "updated_at": "2026-01-10T14:23:00.895000Z"
      },
      {
        "id": 13503,
        "name": "Italian Style Herbs",
        "created_at": "2025-12-23T19:03:38.104000Z",
        "updated_at": "2026-01-10T14:23:00.894000Z"
      },
      {
        "id": 13502,
        "name": "Glazed Burger Bun",
        "created_at": "2025-12-23T19:03:37.264000Z",
        "updated_at": "2026-01-18T01:14:27.815000Z"
      },
      {
        "id": 13501,
        "name": "Ground Ginger",
        "created_at": "2025-12-23T19:03:36.057000Z",
        "updated_at": "2026-01-10T14:23:00.892000Z"
      }
    ],
    "meta": {
      "current_page": 12,
      "from": 551,
      "last_page": 23,
      "per_page": 50,
      "to": 600,
      "total": 1147
    }
  }
}