{
  "metadata": {
    "pull_date": "2026-01-23",
    "endpoint": "ingredients",
    "locale": "en-GB",
    "page": 11,
    "pulled_at_utc": "2026-01-23T22:35:11.899626"
  },
  "payload": {
    "data": [
      {
        "id": 13606,
        "name": "Greek Style Yoghurt",
        "created_at": "2025-12-23T19:04:32.485000Z",
        "updated_at": "2026-01-10T14:23:00.973000Z"
      },
      {
        "id": 13605,
        "name": "Vine Tomatoes",
        "created_at": "2025-12-23T19:04:32.475000Z",
        "updated_at": "2026-01-10T14:23:00.973000Z"
      },
      {
        "id": 13604,
        "name": "Moroccan Medley Couscous",
        "created_at": "2025-12-23T19:04:32.432000Z",
        "updated_at": "2026-01-10T14:23:00.972000Z"
      },
      {
        "id": 13603,
        "name": "Shiitake Mushrooms",
        "created_at": "2025-12-23T19:04:32.288000Z",
        "updated_at": "2026-01-10T14:23:00.971000Z"
      },
      {
        "id": 13602,
        "name": "Star Anise",
        "created_at": "2025-12-23T19:04:31.977000Z",
        "updated_at": "2026-01-10T14:23:00.970000Z"
      },
      {
        "id": 13595,
        "name": "Cashew Pieces",
        "created_at": "2025-12-23T19:04:31.395000Z",
        "updated_at": "2026-01-10T14:23:00.970000Z"
      },
      {
        "id": 13594,
        "name": "Sweetheart Cabbage",
        "created_at": "2025-12-23T19:04:31.298000Z",
        "updated_at": "2026-01-18T01:14:28.907000Z"
      },
      {
        "id": 13593,
        "name": "Beef Stock Powder",
        "created_at": "2025-12-23T19:04:30.205000Z",
        "updated_at": "2026-01-10T14:23:00.968000Z"
      },
      {
        "id": 13592,
        "name": "Potato",
        "created_at": "2025-12-23T19:04:29.819000Z",
        "updated_at": "2026-01-10T14:23:00.967000Z"
      },
      {
        "id": 13591,
        "name": "Dried Italian Herbs",
        "created_at": "2025-12-23T19:04:29.549000Z",
        "updated_at": "2026-01-10T14:23:00.966000Z"
      },
      {
        "id": 13590,
        "name": "Curry Powder",
        "created_at": "2025-12-23T19:04:29.498000Z",
        "updated_at": "2026-01-10T14:23:00.966000Z"
      },
      {
        "id": 13589,
        "name": "Mild Curry Powder",
        "created_at": "2025-12-23T19:04:29.102000Z",
        "updated_at": "2026-01-10T14:23:00.965000Z"
      },
      {
        "id": 13588,
        "name": "Fennel",
        "created_at": "2025-12-23T19:04:29.064000Z",
        "updated_at": "2026-01-10T14:23:00.964000Z"
      },
      {
        "id": 13587,
        "name": "Streaky Bacon Rasher",
        "created_at": "2025-12-23T19:04:28.800000Z",
        "updated_at": "2026-01-10T14:23:00.963000Z"
      },
      {
        "id": 13586,
        "name": "Beef Steak Strips",
        "created_at": "2025-12-23T19:04:28.656000Z",
        "updated_at": "2026-01-10T14:23:00.963000Z"
      },
      {
        "id": 13585,
        "name": "Radish",
        "created_at": "2025-12-23T19:04:28.476000Z",
        "updated_at": "2026-01-10T14:23:00.962000Z"
      },
      {
        "id": 13584,
        "name": "Chicken Stock",
        "created_at": "2025-12-23T19:04:28.291000Z",
        "updated_at": "2026-01-10T14:23:00.961000Z"
      },
      {
        "id": 13583,
        "name": "Garlic and Coriander Naan",
        "created_at": "2025-12-23T19:04:27.776000Z",
        "updated_at": "2026-01-18T01:18:05.143000Z"
      },
      {
        "id": 13582,
        "name": "Lemongrass",
        "created_at": "2025-12-23T19:04:27.407000Z",
        "updated_at": "2026-01-10T14:23:00.959000Z"
      },
      {
        "id": 13581,
        "name": "Chow Mein Garnish",
        "created_at": "2025-12-23T19:04:27.222000Z",
        "updated_at": "2026-01-10T14:23:00.959000Z"
      },
      {
        "id": 13580,
        "name": "Chow Mein Paste",
        "created_at": "2025-12-23T19:04:27.212000Z",
        "updated_at": "2026-01-10T14:23:00.958000Z"
      },
      {
        "id": 13579,
        "name": "Vegetable Stock Powder",
        "created_at": "2025-12-23T19:04:26.973000Z",
        "updated_at": "2026-01-18T01:17:48.896000Z"
      },
      {
        "id": 13578,
        "name": "Apple Cider Vinegar",
        "created_at": "2025-12-23T19:04:26.968000Z",
        "updated_at": "2026-01-10T14:23:00.956000Z"
      },
      {
        "id": 13577,
        "name": "Sri Lankan Curry Powder",
        "created_at": "2025-12-23T19:04:26.905000Z",
        "updated_at": "2026-01-10T14:23:00.956000Z"
      },
      {
        "id": 13576,
        "name": "Chicken Stock Powder",
        "created_at": "2025-12-23T19:04:26.839000Z",
        "updated_at": "2026-01-10T14:23:00.955000Z"
      },
      {
        "id": 13575,
        "name": "Brown Lentils",
        "created_at": "2025-12-23T19:04:26.428000Z",
        "updated_at": "2026-01-10T14:23:00.954000Z"
      },
      {
        "id": 13574,
        "name": "Baharat",
        "created_at": "2025-12-23T19:04:26.354000Z",
        "updated_at": "2026-01-10T14:23:00.953000Z"
      },
      {
        "id": 13573,
        "name": "Green Pesto",
        "created_at": "2025-12-23T19:04:26.130000Z",
        "updated_at": "2026-01-18T01:18:05.645000Z"
      },
      {
        "id": 13572,
        "name": "Cavolo Nero",
        "created_at": "2025-12-23T19:04:25.696000Z",
        "updated_at": "2026-01-10T14:23:00.952000Z"
      },
      {
        "id": 13571,
        "name": "Tri-coloured Chantenay Carrots",
        "created_at": "2025-12-23T19:04:24.688000Z",
        "updated_at": "2026-01-10T14:23:00.951000Z"
      },
      {
        "id": 13570,
        "name": "Oil for the Flour",
        "created_at": "2025-12-23T19:04:24.469000Z",
        "updated_at": "2026-01-10T14:23:00.950000Z"
      },
      {
        "id": 13569,
        "name": "Kidney Beans",
        "created_at": "2025-12-23T19:04:24.070000Z",
        "updated_at": "2026-01-10T14:23:00.949000Z"
      },
      {
        "id": 13568,
        "name": "Pork Steak",
        "created_at": "2025-12-23T19:04:23.968000Z",
        "updated_at": "2026-01-10T14:23:00.949000Z"
      },
      {
        "id": 13567,
        "name": "Pork & Oregano Sausage",
        "created_at": "2025-12-23T19:04:23.584000Z",
        "updated_at": "2026-01-10T14:23:00.948000Z"
      },
      {
        "id": 13566,
        "name": "Pork and Oregano Sausage",
        "created_at": "2025-12-23T19:04:23.025000Z",
        "updated_at": "2026-01-18T01:17:56.971000Z"
      },
      {
        "id": 13565,
        "name": "Water for the Meatballs",
        "created_at": "2025-12-23T19:04:22.774000Z",
        "updated_at": "2026-01-17T12:03:29.767000Z"
      },
      {
        "id": 13564,
        "name": "Long Grain Rice",
        "created_at": "2025-12-23T19:04:22.751000Z",
        "updated_at": "2026-01-10T14:23:00.945000Z"
      },
      {
        "id": 13563,
        "name": "Hake Fillet",
        "created_at": "2025-12-23T19:04:22.125000Z",
        "updated_at": "2026-01-10T14:23:00.945000Z"
      },
      {
        "id": 13562,
        "name": "Pizza Bases",
        "created_at": "2025-12-23T19:04:21.934000Z",
        "updated_at": "2026-01-18T01:14:29.466000Z"
      },
      {
        "id": 13561,
        "name": "Mint Leaves",
        "created_at": "2025-12-23T19:04:21.734000Z",
        "updated_at": "2026-01-10T14:23:00.943000Z"
      },
      {
        "id": 13560,
        "name": "Seeded Burger Bun",
        "created_at": "2025-12-23T19:04:19.535000Z",
        "updated_at": "2026-01-10T14:23:00.943000Z"
      },
      {
        "id": 13559,
        "name": "Shawarma Spice Mix",
        "created_at": "2025-12-23T19:04:19.109000Z",
        "updated_at": "2026-01-10T14:23:00.942000Z"
      },
      {
        "id": 13558,
        "name": "Mirin",
        "created_at": "2025-12-23T19:04:18.457000Z",
        "updated_at": "2026-01-10T14:23:00.941000Z"
      },
      {
        "id": 13557,
        "name": "Beef Strips",
        "created_at": "2025-12-23T19:04:18.368000Z",
        "updated_at": "2026-01-10T14:23:00.940000Z"
      },
      {
        "id": 13556,
        "name": "Water for the Jam",
        "created_at": "2025-12-23T19:04:18.082000Z",
        "updated_at": "2026-01-10T14:23:00.940000Z"
      },
      {
        "id": 13555,
        "name": "Lamb Strips",
        "created_at": "2025-12-23T19:04:17.962000Z",
        "updated_at": "2026-01-10T14:23:00.939000Z"
      },
      {
        "id": 13554,
        "name": "Gluten Free Breadcrumbs",
        "created_at": "2025-12-23T19:04:17.911000Z",
        "updated_at": "2026-01-18T01:13:49.960000Z"
      },
      {
        "id": 13553,
        "name": "Poudre de Colombo",
        "created_at": "2025-12-23T19:04:17.876000Z",
        "updated_at": "2026-01-18T01:17:34.600000Z"
      },
      {
        "id": 13552,
        "name": "Cumin Seeds",
        "created_at": "2025-12-23T19:04:17.207000Z",
        "updated_at": "2026-01-10T14:23:00.937000Z"
      },
      {
        "id": 13551,
        "name": "Pork Sausage Meat",
        "created_at": "2025-12-23T19:04:17.033000Z",
        "updated_at": "2026-01-18T01:17:48.902000Z"
      }
    ],
    "meta": {
      "current_page": 11,
      "from": 501,
      "last_page": 23,
      "per_page": 50,
      "to": 550,
      "total": 1147
    }
  }
}