{
  "metadata": {
    "pull_date": "2026-01-23",
    "endpoint": "ingredients",
    "locale": "en-GB",
    "page": 6,
    "pulled_at_utc": "2026-01-23T22:35:10.665142"
  },
  "payload": {
    "data": [
      {
        "id": 14015,
        "name": "Baby Watercress",
        "created_at": "2025-12-23T19:05:54.787000Z",
        "updated_at": "2026-01-10T14:23:01.179000Z"
      },
      {
        "id": 14014,
        "name": "Gram Flour",
        "created_at": "2025-12-23T19:05:54.763000Z",
        "updated_at": "2026-01-10T14:23:01.178000Z"
      },
      {
        "id": 14013,
        "name": "Stargazer Fillet",
        "created_at": "2025-12-23T19:05:54.531000Z",
        "updated_at": "2026-01-10T14:23:01.178000Z"
      },
      {
        "id": 14012,
        "name": "Black Rice",
        "created_at": "2025-12-23T19:05:54.512000Z",
        "updated_at": "2026-01-10T14:23:01.177000Z"
      },
      {
        "id": 14011,
        "name": "Baby Turnip",
        "created_at": "2025-12-23T19:05:54.441000Z",
        "updated_at": "2026-01-10T14:23:01.176000Z"
      },
      {
        "id": 14010,
        "name": "Crunchy Peanut Butter",
        "created_at": "2025-12-23T19:05:54.426000Z",
        "updated_at": "2026-01-10T14:23:01.176000Z"
      },
      {
        "id": 14009,
        "name": "Porcini Mushrooms",
        "created_at": "2025-12-23T19:05:54.265000Z",
        "updated_at": "2026-01-10T14:23:01.175000Z"
      },
      {
        "id": 14007,
        "name": "Orange Pepper",
        "created_at": "2025-12-23T19:05:54.257000Z",
        "updated_at": "2026-01-10T14:23:01.174000Z"
      },
      {
        "id": 14008,
        "name": "Savoy Cabbage",
        "created_at": "2025-12-23T19:05:54.255000Z",
        "updated_at": "2026-01-10T14:23:01.175000Z"
      },
      {
        "id": 14006,
        "name": "Northern Dough Co. Pizza Dough",
        "created_at": "2025-12-23T19:05:54.249000Z",
        "updated_at": "2026-01-10T14:23:01.174000Z"
      },
      {
        "id": 14005,
        "name": "Rice Water for Sauce",
        "created_at": "2025-12-23T19:05:54.139000Z",
        "updated_at": "2026-01-10T14:23:01.173000Z"
      },
      {
        "id": 14004,
        "name": "Baby Bok Choy",
        "created_at": "2025-12-23T19:05:54.125000Z",
        "updated_at": "2026-01-10T14:23:01.173000Z"
      },
      {
        "id": 14003,
        "name": "Chinese Rice Vinegar",
        "created_at": "2025-12-23T19:05:54.066000Z",
        "updated_at": "2026-01-10T14:23:01.172000Z"
      },
      {
        "id": 14002,
        "name": "Baby Leaves",
        "created_at": "2025-12-23T19:05:53.847000Z",
        "updated_at": "2026-01-10T14:23:01.171000Z"
      },
      {
        "id": 14001,
        "name": "Chorizo Stick",
        "created_at": "2025-12-23T19:05:53.820000Z",
        "updated_at": "2026-01-10T14:23:01.170000Z"
      },
      {
        "id": 13999,
        "name": "Steve's Leaves Peashoots - DO NOT USE",
        "created_at": "2025-12-23T19:05:53.696000Z",
        "updated_at": "2026-01-10T14:23:01.169000Z"
      },
      {
        "id": 14000,
        "name": "Runner Beans",
        "created_at": "2025-12-23T19:05:53.696000Z",
        "updated_at": "2026-01-10T14:23:01.170000Z"
      },
      {
        "id": 13998,
        "name": "Fresh Peas",
        "created_at": "2025-12-23T19:05:53.683000Z",
        "updated_at": "2026-01-10T14:23:01.169000Z"
      },
      {
        "id": 13997,
        "name": "Spiced Plum Chutney",
        "created_at": "2025-12-23T19:05:53.553000Z",
        "updated_at": "2026-01-10T14:23:01.168000Z"
      },
      {
        "id": 13996,
        "name": "Netherend Butter Salted",
        "created_at": "2025-12-23T19:05:53.543000Z",
        "updated_at": "2026-01-10T14:23:01.168000Z"
      },
      {
        "id": 13995,
        "name": "Cox's Apple",
        "created_at": "2025-12-23T19:05:53.522000Z",
        "updated_at": "2026-01-10T14:23:01.167000Z"
      },
      {
        "id": 13994,
        "name": "Wholewheat Tagliatelle",
        "created_at": "2025-12-23T19:05:53.431000Z",
        "updated_at": "2026-01-10T14:23:01.166000Z"
      },
      {
        "id": 13993,
        "name": "Green Bullet Chilli",
        "created_at": "2025-12-23T19:05:53.262000Z",
        "updated_at": "2026-01-10T14:23:01.165000Z"
      },
      {
        "id": 13992,
        "name": "Minced Beef",
        "created_at": "2025-12-23T19:05:53.050000Z",
        "updated_at": "2026-01-10T14:23:01.163000Z"
      },
      {
        "id": 13991,
        "name": "Red Pesto",
        "created_at": "2025-12-23T19:05:52.844000Z",
        "updated_at": "2026-01-10T14:23:01.162000Z"
      },
      {
        "id": 13990,
        "name": "Sausages salsa verde chicken",
        "created_at": "2025-12-23T19:05:52.581000Z",
        "updated_at": "2026-01-10T14:23:01.161000Z"
      },
      {
        "id": 13989,
        "name": "Corn Tortilla",
        "created_at": "2025-12-23T19:05:52.448000Z",
        "updated_at": "2026-01-18T01:17:34.816000Z"
      },
      {
        "id": 13988,
        "name": "Tiger Prawns",
        "created_at": "2025-12-23T19:05:52.205000Z",
        "updated_at": "2026-01-10T14:23:01.159000Z"
      },
      {
        "id": 13987,
        "name": "Kaffir Lime Leaf",
        "created_at": "2025-12-23T19:05:52.198000Z",
        "updated_at": "2026-01-10T14:23:01.158000Z"
      },
      {
        "id": 13986,
        "name": "Duck Steak",
        "created_at": "2025-12-23T19:05:52.174000Z",
        "updated_at": "2026-01-10T14:23:01.157000Z"
      },
      {
        "id": 13985,
        "name": "Lamb loin chop",
        "created_at": "2025-12-23T19:05:52.116000Z",
        "updated_at": "2026-01-10T14:23:01.156000Z"
      },
      {
        "id": 13984,
        "name": "Lemon Thyme",
        "created_at": "2025-12-23T19:05:52.115000Z",
        "updated_at": "2026-01-10T14:23:01.155000Z"
      },
      {
        "id": 13983,
        "name": "Dry Roasted Peanuts",
        "created_at": "2025-12-23T19:05:52.000000Z",
        "updated_at": "2026-01-18T01:18:04.409000Z"
      },
      {
        "id": 13982,
        "name": "Tinned Plum Tomates",
        "created_at": "2025-12-23T19:05:51.855000Z",
        "updated_at": "2026-01-10T14:23:01.154000Z"
      },
      {
        "id": 13981,
        "name": "Chilli Powder",
        "created_at": "2025-12-23T19:05:51.778000Z",
        "updated_at": "2026-01-10T14:23:01.152000Z"
      },
      {
        "id": 13980,
        "name": "Goan Spice Blend",
        "created_at": "2025-12-23T19:05:51.535000Z",
        "updated_at": "2026-01-10T14:23:01.151000Z"
      },
      {
        "id": 13979,
        "name": "Goan Curry Paste",
        "created_at": "2025-12-23T19:05:51.523000Z",
        "updated_at": "2026-01-10T14:23:01.150000Z"
      },
      {
        "id": 13978,
        "name": "Tilapia Fillet",
        "created_at": "2025-12-23T19:05:51.496000Z",
        "updated_at": "2026-01-10T14:23:01.150000Z"
      },
      {
        "id": 13977,
        "name": "Smoked Haddock",
        "created_at": "2025-12-23T19:05:51.474000Z",
        "updated_at": "2026-01-10T14:23:01.149000Z"
      },
      {
        "id": 13976,
        "name": "Button Mushrooms",
        "created_at": "2025-12-23T19:05:51.379000Z",
        "updated_at": "2026-01-10T14:23:01.148000Z"
      },
      {
        "id": 13975,
        "name": "Green Lentils",
        "created_at": "2025-12-23T19:05:51.301000Z",
        "updated_at": "2026-01-10T14:23:01.147000Z"
      },
      {
        "id": 13974,
        "name": "Diced Tomatoes with Basil",
        "created_at": "2025-12-23T19:05:51.176000Z",
        "updated_at": "2026-01-10T14:23:01.146000Z"
      },
      {
        "id": 13973,
        "name": "Yellow Bean Sauce",
        "created_at": "2025-12-23T19:05:50.962000Z",
        "updated_at": "2026-01-18T01:17:59.717000Z"
      },
      {
        "id": 13972,
        "name": "Fresh Thai Basil",
        "created_at": "2025-12-23T19:05:50.555000Z",
        "updated_at": "2026-01-10T14:23:01.145000Z"
      },
      {
        "id": 13971,
        "name": "Vegetable Stock Pot",
        "created_at": "2025-12-23T19:05:50.293000Z",
        "updated_at": "2026-01-10T14:23:01.144000Z"
      },
      {
        "id": 13970,
        "name": "Baby Parsnip",
        "created_at": "2025-12-23T19:05:50.277000Z",
        "updated_at": "2026-01-10T14:23:01.143000Z"
      },
      {
        "id": 13969,
        "name": "Olive Oil for the Chicken",
        "created_at": "2025-12-23T19:05:50.270000Z",
        "updated_at": "2026-01-10T14:23:01.142000Z"
      },
      {
        "id": 13968,
        "name": "Seafood Mix",
        "created_at": "2025-12-23T19:05:50.158000Z",
        "updated_at": "2026-01-10T14:23:01.141000Z"
      },
      {
        "id": 13967,
        "name": "Beansprouts",
        "created_at": "2025-12-23T19:05:50.084000Z",
        "updated_at": "2026-01-10T14:23:01.140000Z"
      },
      {
        "id": 13966,
        "name": "Turkey Giblets",
        "created_at": "2025-12-23T19:05:50.080000Z",
        "updated_at": "2026-01-10T14:23:01.140000Z"
      }
    ],
    "meta": {
      "current_page": 6,
      "from": 251,
      "last_page": 23,
      "per_page": 50,
      "to": 300,
      "total": 1147
    }
  }
}