{
  "metadata": {
    "pull_date": "2026-01-23",
    "endpoint": "ingredients",
    "locale": "en-GB",
    "page": 1,
    "pulled_at_utc": "2026-01-23T22:35:09.433486"
  },
  "payload": {
    "data": [
      {
        "id": 17097,
        "name": "Honey for Drizzling",
        "created_at": "2026-01-17T00:29:36.369000Z",
        "updated_at": "2026-01-17T12:03:30.406000Z"
      },
      {
        "id": 17096,
        "name": "Honey for the Sauce",
        "created_at": "2026-01-17T00:29:36.346000Z",
        "updated_at": "2026-01-17T12:03:30.405000Z"
      },
      {
        "id": 17076,
        "name": "Black Garlic Paste",
        "created_at": "2026-01-10T00:35:07.135000Z",
        "updated_at": "2026-01-10T14:23:01.829000Z"
      },
      {
        "id": 17075,
        "name": "Brazilian Style Spice Mix",
        "created_at": "2026-01-10T00:35:06.862000Z",
        "updated_at": "2026-01-17T12:03:30.404000Z"
      },
      {
        "id": 17074,
        "name": "Guinness® Paste",
        "created_at": "2026-01-10T00:35:05.132000Z",
        "updated_at": "2026-01-17T12:03:30.403000Z"
      },
      {
        "id": 16713,
        "name": "Sweet Chilli Marinade",
        "created_at": "2026-01-02T02:47:15.932000Z",
        "updated_at": "2026-01-10T14:23:01.828000Z"
      },
      {
        "id": 16712,
        "name": "Tin Tomatoes",
        "created_at": "2026-01-02T02:47:15.853000Z",
        "updated_at": "2026-01-10T14:23:01.828000Z"
      },
      {
        "id": 16711,
        "name": "Peppercorn",
        "created_at": "2026-01-02T02:47:15.807000Z",
        "updated_at": "2026-01-10T14:23:01.827000Z"
      },
      {
        "id": 16710,
        "name": "Ghee",
        "created_at": "2026-01-02T02:47:15.725000Z",
        "updated_at": "2026-01-10T14:23:01.827000Z"
      },
      {
        "id": 16709,
        "name": "Luchito Chipotle",
        "created_at": "2026-01-02T02:47:15.716000Z",
        "updated_at": "2026-01-10T14:23:01.826000Z"
      },
      {
        "id": 16708,
        "name": "Belazu Coriander & Cumin Paste",
        "created_at": "2026-01-02T02:47:15.577000Z",
        "updated_at": "2026-01-10T14:23:01.826000Z"
      },
      {
        "id": 16707,
        "name": "Curry Spice",
        "created_at": "2026-01-02T02:47:15.501000Z",
        "updated_at": "2026-01-10T14:23:01.825000Z"
      },
      {
        "id": 16706,
        "name": "Brown Miso Paste",
        "created_at": "2026-01-02T02:47:15.468000Z",
        "updated_at": "2026-01-10T14:23:01.825000Z"
      },
      {
        "id": 16705,
        "name": "Conchiglie Pasta",
        "created_at": "2026-01-02T02:47:15.373000Z",
        "updated_at": "2026-01-10T14:23:01.824000Z"
      },
      {
        "id": 16704,
        "name": "Mild Chili Powder",
        "created_at": "2026-01-02T02:47:15.271000Z",
        "updated_at": "2026-01-10T14:23:01.824000Z"
      },
      {
        "id": 16703,
        "name": "Wahaca Smokey Chipotle Sauce",
        "created_at": "2026-01-02T02:47:15.194000Z",
        "updated_at": "2026-01-10T14:23:01.823000Z"
      },
      {
        "id": 16702,
        "name": "Grain Mustard",
        "created_at": "2026-01-02T02:47:15.160000Z",
        "updated_at": "2026-01-10T14:23:01.823000Z"
      },
      {
        "id": 16701,
        "name": "Del Verde Fresh Gnocchi",
        "created_at": "2026-01-02T02:47:15.121000Z",
        "updated_at": "2026-01-10T14:23:01.823000Z"
      },
      {
        "id": 16700,
        "name": "Courgette strands",
        "created_at": "2026-01-02T02:47:14.878000Z",
        "updated_at": "2026-01-10T14:23:01.822000Z"
      },
      {
        "id": 16699,
        "name": "Bucatini pasta",
        "created_at": "2026-01-02T02:47:14.747000Z",
        "updated_at": "2026-01-10T14:23:01.822000Z"
      },
      {
        "id": 16698,
        "name": "Salad",
        "created_at": "2026-01-02T02:47:14.746000Z",
        "updated_at": "2026-01-10T14:23:01.821000Z"
      },
      {
        "id": 16697,
        "name": "Malt vinegar",
        "created_at": "2026-01-02T02:47:14.678000Z",
        "updated_at": "2026-01-10T14:23:01.821000Z"
      },
      {
        "id": 16696,
        "name": "Chinese Soy Sauce",
        "created_at": "2026-01-02T02:47:14.597000Z",
        "updated_at": "2026-01-10T14:23:01.820000Z"
      },
      {
        "id": 16695,
        "name": "Mustard",
        "created_at": "2026-01-02T02:47:14.325000Z",
        "updated_at": "2026-01-10T14:23:01.820000Z"
      },
      {
        "id": 16694,
        "name": "Water Chestnuts",
        "created_at": "2026-01-02T02:47:14.264000Z",
        "updated_at": "2026-01-10T14:23:01.819000Z"
      },
      {
        "id": 16693,
        "name": "Manomasa Tortilla Chips",
        "created_at": "2026-01-02T02:47:13.869000Z",
        "updated_at": "2026-01-10T14:23:01.819000Z"
      },
      {
        "id": 16692,
        "name": "Chilli",
        "created_at": "2026-01-02T02:47:13.836000Z",
        "updated_at": "2026-01-10T14:23:01.818000Z"
      },
      {
        "id": 16691,
        "name": "Plain Yoghurt",
        "created_at": "2026-01-02T02:47:13.697000Z",
        "updated_at": "2026-01-10T14:23:01.818000Z"
      },
      {
        "id": 16690,
        "name": "Veggie Thai Red Curry Paste",
        "created_at": "2026-01-02T02:47:13.669000Z",
        "updated_at": "2026-01-10T14:23:01.818000Z"
      },
      {
        "id": 16689,
        "name": "Steve's Leaves",
        "created_at": "2026-01-02T02:47:13.547000Z",
        "updated_at": "2026-01-10T14:23:01.817000Z"
      },
      {
        "id": 16688,
        "name": "Cheese",
        "created_at": "2026-01-02T02:47:13.535000Z",
        "updated_at": "2026-01-10T14:23:01.817000Z"
      },
      {
        "id": 16685,
        "name": "Fettuccine",
        "created_at": "2026-01-02T02:47:10.626000Z",
        "updated_at": "2026-01-10T14:23:01.816000Z"
      },
      {
        "id": 16684,
        "name": "Pea Shoots & Baby Leaves",
        "created_at": "2026-01-02T02:47:10.275000Z",
        "updated_at": "2026-01-10T14:23:01.816000Z"
      },
      {
        "id": 16683,
        "name": "Pecorino Cheese",
        "created_at": "2026-01-02T02:47:10.182000Z",
        "updated_at": "2026-01-10T14:23:01.815000Z"
      },
      {
        "id": 16682,
        "name": "Organic Tomatoes",
        "created_at": "2026-01-02T02:47:09.943000Z",
        "updated_at": "2026-01-10T14:23:01.815000Z"
      },
      {
        "id": 16681,
        "name": "Steve’s Leaves: Peashoots & Spinach",
        "created_at": "2026-01-02T02:47:09.425000Z",
        "updated_at": "2026-01-10T14:23:01.814000Z"
      },
      {
        "id": 16680,
        "name": "Boursin",
        "created_at": "2026-01-02T02:47:09.412000Z",
        "updated_at": "2026-01-10T14:23:01.814000Z"
      },
      {
        "id": 16679,
        "name": "Ground Cloves",
        "created_at": "2026-01-02T02:47:09.256000Z",
        "updated_at": "2026-01-10T14:23:01.814000Z"
      },
      {
        "id": 16678,
        "name": "Pitta Bread",
        "created_at": "2026-01-02T02:47:09.245000Z",
        "updated_at": "2026-01-10T14:23:01.813000Z"
      },
      {
        "id": 16677,
        "name": "Spices: Cumin, Smoked Paprika and Cinnamon",
        "created_at": "2026-01-02T02:47:09.035000Z",
        "updated_at": "2026-01-10T14:23:01.813000Z"
      },
      {
        "id": 16676,
        "name": "Black Garlic Teriyaki Sauce",
        "created_at": "2026-01-02T02:47:08.863000Z",
        "updated_at": "2026-01-10T14:23:01.812000Z"
      },
      {
        "id": 16675,
        "name": "Roaming Roosters Pork Fillet",
        "created_at": "2026-01-02T02:47:08.851000Z",
        "updated_at": "2026-01-10T14:23:01.812000Z"
      },
      {
        "id": 16674,
        "name": "Tabasco",
        "created_at": "2026-01-02T02:47:08.820000Z",
        "updated_at": "2026-01-10T14:23:01.811000Z"
      },
      {
        "id": 16673,
        "name": "Chilli Bean Paste",
        "created_at": "2026-01-02T02:47:08.749000Z",
        "updated_at": "2026-01-10T14:23:01.811000Z"
      },
      {
        "id": 16672,
        "name": "Roaming Roosters Steak",
        "created_at": "2026-01-02T02:47:08.572000Z",
        "updated_at": "2026-01-10T14:23:01.810000Z"
      },
      {
        "id": 16671,
        "name": "Giant Couscous",
        "created_at": "2026-01-02T02:47:08.361000Z",
        "updated_at": "2026-01-10T14:23:01.810000Z"
      },
      {
        "id": 16670,
        "name": "Pandan Leaf",
        "created_at": "2026-01-02T02:47:08.326000Z",
        "updated_at": "2026-01-10T14:23:01.809000Z"
      },
      {
        "id": 16669,
        "name": "Skewers",
        "created_at": "2026-01-02T02:47:08.295000Z",
        "updated_at": "2026-01-10T14:23:01.809000Z"
      },
      {
        "id": 16668,
        "name": "Kabsa Spice",
        "created_at": "2026-01-02T02:47:08.101000Z",
        "updated_at": "2026-01-10T14:23:01.808000Z"
      },
      {
        "id": 16667,
        "name": "Bang Curry Spice",
        "created_at": "2026-01-02T02:47:07.736000Z",
        "updated_at": "2026-01-10T14:23:01.808000Z"
      }
    ],
    "meta": {
      "current_page": 1,
      "from": 1,
      "last_page": 23,
      "per_page": 50,
      "to": 50,
      "total": 1147
    }
  }
}