{
  "metadata": {
    "pull_date": "2026-01-23",
    "endpoint": "ingredients",
    "locale": "en-GB",
    "page": 13,
    "pulled_at_utc": "2026-01-23T22:35:12.368105"
  },
  "payload": {
    "data": [
      {
        "id": 13500,
        "name": "Sumac",
        "created_at": "2025-12-23T19:03:34.161000Z",
        "updated_at": "2026-01-10T14:23:00.891000Z"
      },
      {
        "id": 13499,
        "name": "Fresh Chilli Jam",
        "created_at": "2025-12-23T19:03:34.062000Z",
        "updated_at": "2026-01-10T14:23:00.890000Z"
      },
      {
        "id": 13498,
        "name": "Massaman Curry Paste",
        "created_at": "2025-12-23T19:03:32.429000Z",
        "updated_at": "2026-01-10T14:23:00.890000Z"
      },
      {
        "id": 13497,
        "name": "Smoked Tofu",
        "created_at": "2025-12-23T19:03:31.982000Z",
        "updated_at": "2026-01-18T01:17:23.079000Z"
      },
      {
        "id": 13496,
        "name": "Nigella Seeds",
        "created_at": "2025-12-23T19:03:31.622000Z",
        "updated_at": "2026-01-18T01:17:43.078000Z"
      },
      {
        "id": 13495,
        "name": "Za'atar",
        "created_at": "2025-12-23T19:03:27.979000Z",
        "updated_at": "2026-01-10T14:23:00.887000Z"
      },
      {
        "id": 13494,
        "name": "Speculoos Biscuit Crumb",
        "created_at": "2025-12-23T19:03:26.433000Z",
        "updated_at": "2026-01-10T14:23:00.886000Z"
      },
      {
        "id": 13493,
        "name": "Philadelphia Cheese",
        "created_at": "2025-12-23T19:03:26.422000Z",
        "updated_at": "2026-01-10T14:23:00.885000Z"
      },
      {
        "id": 13492,
        "name": "Arborio Rice",
        "created_at": "2025-12-23T19:03:25.416000Z",
        "updated_at": "2026-01-10T14:23:00.884000Z"
      },
      {
        "id": 13491,
        "name": "Boiled Water for the Soup",
        "created_at": "2025-12-23T19:03:25.400000Z",
        "updated_at": "2026-01-10T14:23:00.884000Z"
      },
      {
        "id": 13490,
        "name": "Apple Juice",
        "created_at": "2025-12-23T19:03:25.344000Z",
        "updated_at": "2026-01-10T14:23:00.883000Z"
      },
      {
        "id": 13489,
        "name": "Ras-el-Hanout",
        "created_at": "2025-12-23T19:03:24.251000Z",
        "updated_at": "2026-01-10T14:23:00.882000Z"
      },
      {
        "id": 13488,
        "name": "Garlic Salt",
        "created_at": "2025-12-23T19:03:22.844000Z",
        "updated_at": "2026-01-10T14:23:00.881000Z"
      },
      {
        "id": 13487,
        "name": "Turkey Stock Powder",
        "created_at": "2025-12-23T19:03:20.586000Z",
        "updated_at": "2026-01-10T14:23:00.880000Z"
      },
      {
        "id": 13486,
        "name": "Turkey for 8-10p",
        "created_at": "2025-12-23T19:03:20.543000Z",
        "updated_at": "2026-01-10T14:23:00.879000Z"
      },
      {
        "id": 13485,
        "name": "Turkey Crown for 4-6p",
        "created_at": "2025-12-23T19:03:20.539000Z",
        "updated_at": "2026-01-10T14:23:00.878000Z"
      },
      {
        "id": 13484,
        "name": "Ford Farm Coastal Cheddar",
        "created_at": "2025-12-23T19:03:20.514000Z",
        "updated_at": "2026-01-10T14:23:00.877000Z"
      },
      {
        "id": 13483,
        "name": "Wensleydale & Cranberry",
        "created_at": "2025-12-23T19:03:20.507000Z",
        "updated_at": "2026-01-10T14:23:00.877000Z"
      },
      {
        "id": 13482,
        "name": "Fourme D’ambert",
        "created_at": "2025-12-23T19:03:20.499000Z",
        "updated_at": "2026-01-10T14:23:00.876000Z"
      },
      {
        "id": 13481,
        "name": "Quince Fruit Cheese",
        "created_at": "2025-12-23T19:03:20.492000Z",
        "updated_at": "2026-01-10T14:23:00.875000Z"
      },
      {
        "id": 13480,
        "name": "Millers Damsel Charcoal Wafers",
        "created_at": "2025-12-23T19:03:20.484000Z",
        "updated_at": "2026-01-10T14:23:00.874000Z"
      },
      {
        "id": 13479,
        "name": "Carr's Crackers",
        "created_at": "2025-12-23T19:03:20.476000Z",
        "updated_at": "2026-01-10T14:23:00.873000Z"
      },
      {
        "id": 13478,
        "name": "Lamb Loin",
        "created_at": "2025-12-23T19:03:17.711000Z",
        "updated_at": "2026-01-10T14:23:00.872000Z"
      },
      {
        "id": 13477,
        "name": "Pappardelle",
        "created_at": "2025-12-23T19:03:14.054000Z",
        "updated_at": "2026-01-10T14:23:00.871000Z"
      },
      {
        "id": 13476,
        "name": "Ground Coriander",
        "created_at": "2025-12-23T19:03:12.176000Z",
        "updated_at": "2026-01-10T14:23:00.871000Z"
      },
      {
        "id": 13475,
        "name": "Cardamom Pod",
        "created_at": "2025-12-23T19:03:11.105000Z",
        "updated_at": "2026-01-10T14:23:00.870000Z"
      },
      {
        "id": 13474,
        "name": "Thai Green Curry Paste",
        "created_at": "2025-12-23T19:03:10.952000Z",
        "updated_at": "2026-01-10T14:23:00.869000Z"
      },
      {
        "id": 13473,
        "name": "Patak's Korma Paste",
        "created_at": "2025-12-23T19:03:05.638000Z",
        "updated_at": "2026-01-10T14:23:00.868000Z"
      },
      {
        "id": 13472,
        "name": "Cherry Tomatoes",
        "created_at": "2025-12-23T19:03:04.834000Z",
        "updated_at": "2026-01-10T14:23:00.867000Z"
      },
      {
        "id": 13471,
        "name": "Korma Sauce",
        "created_at": "2025-12-23T19:03:03.929000Z",
        "updated_at": "2026-01-10T14:23:00.866000Z"
      },
      {
        "id": 13470,
        "name": "Beef Meatballs",
        "created_at": "2025-12-23T19:03:02.716000Z",
        "updated_at": "2026-01-18T01:17:23.830000Z"
      },
      {
        "id": 13469,
        "name": "Salt for the Pickle",
        "created_at": "2025-12-23T19:02:59.296000Z",
        "updated_at": "2026-01-10T14:23:00.865000Z"
      },
      {
        "id": 13468,
        "name": "Hollandaise Sauce",
        "created_at": "2025-12-23T19:02:58.878000Z",
        "updated_at": "2026-01-10T14:23:00.864000Z"
      },
      {
        "id": 13455,
        "name": "Water for the Potatoes",
        "created_at": "2025-12-23T19:02:58.098000Z",
        "updated_at": "2026-01-10T14:23:00.863000Z"
      },
      {
        "id": 13454,
        "name": "Water for the Relish",
        "created_at": "2025-12-23T19:02:41.116000Z",
        "updated_at": "2026-01-10T14:23:00.862000Z"
      },
      {
        "id": 13453,
        "name": "Grilling Cheese",
        "created_at": "2025-12-23T19:02:33.072000Z",
        "updated_at": "2026-01-10T14:23:00.861000Z"
      },
      {
        "id": 13442,
        "name": "Instant Oats",
        "created_at": "2025-12-23T19:02:28.477000Z",
        "updated_at": "2026-01-18T01:09:34.932000Z"
      },
      {
        "id": 13441,
        "name": "Red Berry Compote",
        "created_at": "2025-12-23T19:02:28.468000Z",
        "updated_at": "2026-01-10T14:23:00.859000Z"
      },
      {
        "id": 13440,
        "name": "Smashed Avocado Pot",
        "created_at": "2025-12-23T19:02:25.392000Z",
        "updated_at": "2026-01-10T14:23:00.858000Z"
      },
      {
        "id": 13434,
        "name": "Ginger",
        "created_at": "2025-12-23T19:02:18.017000Z",
        "updated_at": "2026-01-10T14:23:00.858000Z"
      },
      {
        "id": 13427,
        "name": "Saffron",
        "created_at": "2025-12-23T19:02:13.325000Z",
        "updated_at": "2026-01-10T14:23:00.857000Z"
      },
      {
        "id": 13416,
        "name": "Beef Stock Pot",
        "created_at": "2025-12-23T19:02:04.988000Z",
        "updated_at": "2026-01-10T14:23:00.856000Z"
      },
      {
        "id": 13408,
        "name": "KNORR Chicken Stock",
        "created_at": "2025-12-23T19:02:01.887000Z",
        "updated_at": "2026-01-10T14:23:00.855000Z"
      },
      {
        "id": 13407,
        "name": "KNORR Vegetable Stock",
        "created_at": "2025-12-23T19:01:56.999000Z",
        "updated_at": "2026-01-18T01:16:53.861000Z"
      },
      {
        "id": 13406,
        "name": "Double Cream",
        "created_at": "2025-12-23T19:01:55.297000Z",
        "updated_at": "2026-01-18T01:17:49.465000Z"
      },
      {
        "id": 13405,
        "name": "Oil for the Croutons",
        "created_at": "2025-12-23T19:01:53.980000Z",
        "updated_at": "2026-01-10T14:23:00.852000Z"
      },
      {
        "id": 13404,
        "name": "Panko Breadcrumbs",
        "created_at": "2025-12-23T19:01:51.913000Z",
        "updated_at": "2026-01-18T01:17:56.282000Z"
      },
      {
        "id": 13403,
        "name": "Fresh Pesto",
        "created_at": "2025-12-23T19:01:48.743000Z",
        "updated_at": "2026-01-18T01:14:33.905000Z"
      },
      {
        "id": 13402,
        "name": "UHT Cooking Cream",
        "created_at": "2025-12-23T19:01:48.349000Z",
        "updated_at": "2026-01-10T14:23:00.850000Z"
      },
      {
        "id": 13401,
        "name": "Closed Cup Mushrooms",
        "created_at": "2025-12-23T19:01:47.196000Z",
        "updated_at": "2026-01-10T14:23:00.849000Z"
      }
    ],
    "meta": {
      "current_page": 13,
      "from": 601,
      "last_page": 23,
      "per_page": 50,
      "to": 650,
      "total": 1147
    }
  }
}