{
  "metadata": {
    "pull_date": "2026-01-23",
    "endpoint": "labels",
    "locale": "en-GB",
    "page": 3,
    "pulled_at_utc": "2026-01-23T22:35:16.467039"
  },
  "payload": {
    "data": [
      {
        "id": 840,
        "name": "Bank Holiday",
        "created_at": "2025-12-23T18:37:33.058000Z",
        "updated_at": "2026-01-10T14:23:21.908000Z"
      },
      {
        "id": 837,
        "name": "Sunshine Dining",
        "created_at": "2025-12-23T18:37:12.843000Z",
        "updated_at": "2026-01-10T14:23:21.907000Z"
      },
      {
        "id": 836,
        "name": "Skill Level: Novice",
        "created_at": "2025-12-23T18:37:12.794000Z",
        "updated_at": "2026-01-10T14:23:21.907000Z"
      },
      {
        "id": 834,
        "name": "New",
        "created_at": "2025-12-23T18:37:08.817000Z",
        "updated_at": "2026-01-10T14:23:21.906000Z"
      },
      {
        "id": 825,
        "name": "Ultimate",
        "created_at": "2025-12-23T18:36:32.269000Z",
        "updated_at": "2026-01-10T14:23:21.905000Z"
      },
      {
        "id": 819,
        "name": "Unique Flavours",
        "created_at": "2025-12-23T18:36:14.050000Z",
        "updated_at": "2026-01-10T14:23:21.904000Z"
      },
      {
        "id": 807,
        "name": "XXL Portion",
        "created_at": "2025-12-23T18:35:26.447000Z",
        "updated_at": "2026-01-10T14:23:21.904000Z"
      },
      {
        "id": 797,
        "name": "Taste of Kerala",
        "created_at": "2025-12-23T18:35:05.768000Z",
        "updated_at": "2026-01-10T14:23:21.903000Z"
      },
      {
        "id": 793,
        "name": "Taste of the Punjab",
        "created_at": "2025-12-23T18:34:47.220000Z",
        "updated_at": "2026-01-10T14:23:21.902000Z"
      },
      {
        "id": 788,
        "name": "2 Course Signature'",
        "created_at": "2025-12-23T18:34:37.770000Z",
        "updated_at": "2026-01-10T14:23:21.902000Z"
      },
      {
        "id": 787,
        "name": "Birra Moretti",
        "created_at": "2025-12-23T18:34:37.722000Z",
        "updated_at": "2026-01-10T14:23:21.901000Z"
      },
      {
        "id": 786,
        "name": "A Taste of Goa",
        "created_at": "2025-12-23T18:34:36.950000Z",
        "updated_at": "2026-01-10T14:23:21.900000Z"
      },
      {
        "id": 772,
        "name": "A Taste of India",
        "created_at": "2025-12-23T18:33:57.467000Z",
        "updated_at": "2026-01-10T14:23:21.900000Z"
      },
      {
        "id": 771,
        "name": "A Taste of Gujurat",
        "created_at": "2025-12-23T18:33:57.395000Z",
        "updated_at": "2026-01-10T14:23:21.899000Z"
      },
      {
        "id": 742,
        "name": "A Taste of Germany",
        "created_at": "2025-12-23T18:32:49.752000Z",
        "updated_at": "2026-01-17T12:03:53.068000Z"
      },
      {
        "id": 740,
        "name": "A Taste of France",
        "created_at": "2025-12-23T18:32:49.591000Z",
        "updated_at": "2026-01-17T12:03:53.067000Z"
      },
      {
        "id": 704,
        "name": "Back to School",
        "created_at": "2025-12-23T18:31:49.605000Z",
        "updated_at": "2026-01-10T14:23:21.897000Z"
      },
      {
        "id": 703,
        "name": "A Taste of Autumn",
        "created_at": "2025-12-23T18:31:49.516000Z",
        "updated_at": "2026-01-10T14:23:21.896000Z"
      },
      {
        "id": 691,
        "name": "Halloween",
        "created_at": "2025-12-23T18:31:32.801000Z",
        "updated_at": "2026-01-10T14:23:21.895000Z"
      },
      {
        "id": 630,
        "name": "Bonfire Night",
        "created_at": "2025-12-23T18:29:28.148000Z",
        "updated_at": "2026-01-10T14:23:21.895000Z"
      },
      {
        "id": 627,
        "name": "A Taste of Asia",
        "created_at": "2025-12-23T18:29:21.541000Z",
        "updated_at": "2026-01-10T14:23:21.894000Z"
      },
      {
        "id": 592,
        "name": "Family Kitchen",
        "created_at": "2025-12-23T18:28:25.893000Z",
        "updated_at": "2026-01-17T12:03:53.066000Z"
      },
      {
        "id": 538,
        "name": "Paramount+",
        "created_at": "2025-12-23T18:27:41.484000Z",
        "updated_at": "2026-01-10T14:23:21.892000Z"
      },
      {
        "id": 520,
        "name": "Veggie",
        "created_at": "2025-12-23T18:27:32.995000Z",
        "updated_at": "2026-01-10T14:23:21.892000Z"
      },
      {
        "id": 519,
        "name": "Lower Carb",
        "created_at": "2025-12-23T18:27:32.779000Z",
        "updated_at": "2026-01-10T14:23:21.891000Z"
      },
      {
        "id": 477,
        "name": "Best of 2025",
        "created_at": "2025-12-23T18:26:59.572000Z",
        "updated_at": "2026-01-10T14:23:21.890000Z"
      },
      {
        "id": 378,
        "name": "Build your Own Feast",
        "created_at": "2025-12-23T18:25:59.624000Z",
        "updated_at": "2026-01-10T14:23:21.890000Z"
      },
      {
        "id": 372,
        "name": "NYE Celebration",
        "created_at": "2025-12-23T18:25:53.788000Z",
        "updated_at": "2026-01-10T14:23:21.889000Z"
      },
      {
        "id": 371,
        "name": "Festive Flavours",
        "created_at": "2025-12-23T18:25:53.625000Z",
        "updated_at": "2026-01-10T14:23:21.888000Z"
      },
      {
        "id": 171,
        "name": "Vegetarian Butcher",
        "created_at": "2025-12-23T18:23:40.484000Z",
        "updated_at": "2026-01-10T14:23:21.888000Z"
      },
      {
        "id": 169,
        "name": "Premium Ingredient",
        "created_at": "2025-12-23T18:23:40.120000Z",
        "updated_at": "2026-01-17T12:03:53.065000Z"
      },
      {
        "id": 168,
        "name": "Premium Twist",
        "created_at": "2025-12-23T18:23:40.104000Z",
        "updated_at": "2026-01-17T12:03:53.064000Z"
      },
      {
        "id": 167,
        "name": "Bestseller",
        "created_at": "2025-12-23T18:23:40.088000Z",
        "updated_at": "2026-01-17T12:03:53.063000Z"
      },
      {
        "id": 28,
        "name": "Double Protein",
        "created_at": "2025-12-23T18:22:49.279000Z",
        "updated_at": "2026-01-17T12:03:53.062000Z"
      },
      {
        "id": 4,
        "name": "Fresh Restart",
        "created_at": "2025-12-23T18:22:17.157000Z",
        "updated_at": "2026-01-10T14:23:21.884000Z"
      },
      {
        "id": 1,
        "name": "Winter Warmers",
        "created_at": "2025-12-23T18:22:07.625000Z",
        "updated_at": "2026-01-17T23:02:24.444000Z"
      }
    ],
    "meta": {
      "current_page": 3,
      "from": 101,
      "last_page": 3,
      "per_page": 50,
      "to": 136,
      "total": 136
    }
  }
}