{
  "metadata": {
    "pull_date": "2026-01-23",
    "endpoint": "labels",
    "locale": "en-GB",
    "page": 2,
    "pulled_at_utc": "2026-01-23T22:35:16.157923"
  },
  "payload": {
    "data": [
      {
        "id": 1067,
        "name": "Bao Night",
        "created_at": "2025-12-23T18:50:15.816000Z",
        "updated_at": "2026-01-10T14:23:21.947000Z"
      },
      {
        "id": 1066,
        "name": "Winter Wonders",
        "created_at": "2025-12-23T18:50:15.488000Z",
        "updated_at": "2026-01-10T14:23:21.946000Z"
      },
      {
        "id": 1065,
        "name": "Calorie Smart Luxe",
        "created_at": "2025-12-23T18:50:15.171000Z",
        "updated_at": "2026-01-10T14:23:21.946000Z"
      },
      {
        "id": 1055,
        "name": "Craft Burger",
        "created_at": "2025-12-23T18:49:56.988000Z",
        "updated_at": "2026-01-10T14:23:21.945000Z"
      },
      {
        "id": 1054,
        "name": "Premium",
        "created_at": "2025-12-23T18:49:56.177000Z",
        "updated_at": "2026-01-10T14:23:21.944000Z"
      },
      {
        "id": 1053,
        "name": "Steak Night",
        "created_at": "2025-12-23T18:49:56.142000Z",
        "updated_at": "2026-01-10T14:23:21.943000Z"
      },
      {
        "id": 1047,
        "name": "Paddington in Peru",
        "created_at": "2025-12-23T18:49:47.940000Z",
        "updated_at": "2026-01-10T14:23:21.942000Z"
      },
      {
        "id": 1046,
        "name": "Veggie Street Food",
        "created_at": "2025-12-23T18:49:47.897000Z",
        "updated_at": "2026-01-10T14:23:21.941000Z"
      },
      {
        "id": 1045,
        "name": "Seafood Special",
        "created_at": "2025-12-23T18:49:47.881000Z",
        "updated_at": "2026-01-10T14:23:21.941000Z"
      },
      {
        "id": 1044,
        "name": "Lunar New Year",
        "created_at": "2025-12-23T18:49:47.831000Z",
        "updated_at": "2026-01-17T12:03:53.071000Z"
      },
      {
        "id": 1042,
        "name": "Winter Ski Trip",
        "created_at": "2025-12-23T18:49:46.914000Z",
        "updated_at": "2026-01-10T14:23:21.939000Z"
      },
      {
        "id": 1038,
        "name": "Quick Premium",
        "created_at": "2025-12-23T18:49:38.942000Z",
        "updated_at": "2026-01-10T14:23:21.938000Z"
      },
      {
        "id": 1037,
        "name": "Street Food",
        "created_at": "2025-12-23T18:49:37.884000Z",
        "updated_at": "2026-01-10T14:23:21.938000Z"
      },
      {
        "id": 1018,
        "name": "A Taste of Brazil",
        "created_at": "2025-12-23T18:48:38.302000Z",
        "updated_at": "2026-01-10T14:23:21.937000Z"
      },
      {
        "id": 1017,
        "name": "A Taste of Korea",
        "created_at": "2025-12-23T18:48:38.059000Z",
        "updated_at": "2026-01-18T00:08:59.044000Z"
      },
      {
        "id": 1015,
        "name": "A Taste of Cambodia",
        "created_at": "2025-12-23T18:48:27.544000Z",
        "updated_at": "2026-01-18T00:08:39.270000Z"
      },
      {
        "id": 1013,
        "name": "Valentine's Special",
        "created_at": "2025-12-23T18:48:20.598000Z",
        "updated_at": "2026-01-10T14:23:21.934000Z"
      },
      {
        "id": 1012,
        "name": "A Taste of Nigeria",
        "created_at": "2025-12-23T18:48:17.296000Z",
        "updated_at": "2026-01-10T14:23:21.933000Z"
      },
      {
        "id": 1003,
        "name": "Fruits Galore",
        "created_at": "2025-12-23T18:47:38.085000Z",
        "updated_at": "2026-01-10T14:23:21.933000Z"
      },
      {
        "id": 1000,
        "name": "A Taste of Singapore",
        "created_at": "2025-12-23T18:47:27.015000Z",
        "updated_at": "2026-01-10T14:23:21.932000Z"
      },
      {
        "id": 999,
        "name": "Six Nations",
        "created_at": "2025-12-23T18:47:26.988000Z",
        "updated_at": "2026-01-17T12:03:53.070000Z"
      },
      {
        "id": 997,
        "name": "St Patrick's Day",
        "created_at": "2025-12-23T18:47:20.326000Z",
        "updated_at": "2026-01-10T14:23:21.931000Z"
      },
      {
        "id": 995,
        "name": "Mother's Day",
        "created_at": "2025-12-23T18:47:00.536000Z",
        "updated_at": "2026-01-18T00:07:21.705000Z"
      },
      {
        "id": 985,
        "name": "Childhood Classics",
        "created_at": "2025-12-23T18:46:34.730000Z",
        "updated_at": "2026-01-10T14:23:21.929000Z"
      },
      {
        "id": 973,
        "name": "15 Min Meals",
        "created_at": "2025-12-23T18:46:10.650000Z",
        "updated_at": "2026-01-10T14:23:21.928000Z"
      },
      {
        "id": 972,
        "name": "Easter Special",
        "created_at": "2025-12-23T18:46:10.516000Z",
        "updated_at": "2026-01-10T14:23:21.928000Z"
      },
      {
        "id": 971,
        "name": "Thatchers Cider",
        "created_at": "2025-12-23T18:46:04.761000Z",
        "updated_at": "2026-01-10T14:23:21.927000Z"
      },
      {
        "id": 969,
        "name": "May Bank Holiday",
        "created_at": "2025-12-23T18:45:57.536000Z",
        "updated_at": "2026-01-10T14:23:21.926000Z"
      },
      {
        "id": 968,
        "name": "Takeaway Faves",
        "created_at": "2025-12-23T18:45:57.434000Z",
        "updated_at": "2026-01-10T14:23:21.926000Z"
      },
      {
        "id": 964,
        "name": "Family",
        "created_at": "2025-12-23T18:45:53.550000Z",
        "updated_at": "2026-01-10T14:23:21.925000Z"
      },
      {
        "id": 962,
        "name": "Spring Celebration",
        "created_at": "2025-12-23T18:45:48.960000Z",
        "updated_at": "2026-01-10T14:23:21.924000Z"
      },
      {
        "id": 959,
        "name": "Calorie Reduced",
        "created_at": "2025-12-23T18:45:39.469000Z",
        "updated_at": "2026-01-10T14:23:21.923000Z"
      },
      {
        "id": 958,
        "name": "Bank Holiday Special",
        "created_at": "2025-12-23T18:45:39.304000Z",
        "updated_at": "2026-01-18T00:05:25.728000Z"
      },
      {
        "id": 954,
        "name": "A Taste of the Med",
        "created_at": "2025-12-23T18:45:28.788000Z",
        "updated_at": "2026-01-10T14:23:21.922000Z"
      },
      {
        "id": 953,
        "name": "Summer Picnic",
        "created_at": "2025-12-23T18:45:22.724000Z",
        "updated_at": "2026-01-10T14:23:21.921000Z"
      },
      {
        "id": 951,
        "name": "SONIC THE HEDGEHOG™",
        "created_at": "2025-12-23T18:45:20.797000Z",
        "updated_at": "2026-01-10T14:23:21.920000Z"
      },
      {
        "id": 952,
        "name": "SONIC THE HEDGEHOG™",
        "created_at": "2025-12-23T18:45:20.796000Z",
        "updated_at": "2026-01-10T14:23:21.921000Z"
      },
      {
        "id": 950,
        "name": "Father's Day",
        "created_at": "2025-12-23T18:45:19.510000Z",
        "updated_at": "2026-01-10T14:23:21.919000Z"
      },
      {
        "id": 934,
        "name": "BBQ Season",
        "created_at": "2025-12-23T18:44:22.061000Z",
        "updated_at": "2026-01-10T14:23:21.918000Z"
      },
      {
        "id": 933,
        "name": "Matchday Bites",
        "created_at": "2025-12-23T18:44:09.997000Z",
        "updated_at": "2026-01-10T14:23:21.917000Z"
      },
      {
        "id": 932,
        "name": "Pizza Night",
        "created_at": "2025-12-23T18:44:09.840000Z",
        "updated_at": "2026-01-10T14:23:21.916000Z"
      },
      {
        "id": 931,
        "name": "A Taste of Italy",
        "created_at": "2025-12-23T18:44:09.829000Z",
        "updated_at": "2026-01-18T00:03:42.554000Z"
      },
      {
        "id": 918,
        "name": "A Taste of the USA",
        "created_at": "2025-12-23T18:43:21.701000Z",
        "updated_at": "2026-01-10T14:23:21.914000Z"
      },
      {
        "id": 906,
        "name": "Skill Level: Medium",
        "created_at": "2025-12-23T18:42:36.843000Z",
        "updated_at": "2026-01-10T14:23:21.914000Z"
      },
      {
        "id": 905,
        "name": "Skill Level: Expert",
        "created_at": "2025-12-23T18:42:36.514000Z",
        "updated_at": "2026-01-10T14:23:21.913000Z"
      },
      {
        "id": 904,
        "name": "Taste of the Tropics",
        "created_at": "2025-12-23T18:42:34.970000Z",
        "updated_at": "2026-01-10T14:23:21.912000Z"
      },
      {
        "id": 876,
        "name": "Customer Favourites",
        "created_at": "2025-12-23T18:40:21.761000Z",
        "updated_at": "2026-01-10T14:23:21.911000Z"
      },
      {
        "id": 875,
        "name": "A Taste of Portugal",
        "created_at": "2025-12-23T18:40:21.382000Z",
        "updated_at": "2026-01-10T14:23:21.910000Z"
      },
      {
        "id": 872,
        "name": "Fusion Flavours",
        "created_at": "2025-12-23T18:39:59.611000Z",
        "updated_at": "2026-01-10T14:23:21.909000Z"
      },
      {
        "id": 843,
        "name": "A Taste of Spain",
        "created_at": "2025-12-23T18:37:36.893000Z",
        "updated_at": "2026-01-10T14:23:21.909000Z"
      }
    ],
    "meta": {
      "current_page": 2,
      "from": 51,
      "last_page": 3,
      "per_page": 50,
      "to": 100,
      "total": 136
    }
  }
}