{
  "metadata": {
    "pull_date": "2026-01-23",
    "endpoint": "labels",
    "locale": "en-GB",
    "page": 1,
    "pulled_at_utc": "2026-01-23T22:35:15.888661"
  },
  "payload": {
    "data": [
      {
        "id": 1609,
        "name": "A Taste of Belgium",
        "created_at": "2026-01-17T00:29:36.672000Z",
        "updated_at": "2026-01-17T12:03:53.077000Z"
      },
      {
        "id": 1608,
        "name": "Hidden Veg",
        "created_at": "2026-01-17T00:29:36.651000Z",
        "updated_at": "2026-01-17T12:03:53.076000Z"
      },
      {
        "id": 1607,
        "name": "Elevate for Adults",
        "created_at": "2026-01-17T00:29:33.502000Z",
        "updated_at": "2026-01-17T12:03:53.075000Z"
      },
      {
        "id": 1606,
        "name": "Kid's Kitchen",
        "created_at": "2026-01-17T00:29:33.457000Z",
        "updated_at": "2026-01-17T12:03:53.074000Z"
      },
      {
        "id": 1504,
        "name": "Green Chef",
        "created_at": "2026-01-02T02:35:42.167000Z",
        "updated_at": "2026-01-10T14:23:21.981000Z"
      },
      {
        "id": 1217,
        "name": "Rapid",
        "created_at": "2025-12-23T19:05:51.097000Z",
        "updated_at": "2026-01-10T14:23:21.980000Z"
      },
      {
        "id": 1216,
        "name": "Balanced",
        "created_at": "2025-12-23T19:05:38.168000Z",
        "updated_at": "2026-01-10T14:23:21.979000Z"
      },
      {
        "id": 1215,
        "name": "Extra Rapid",
        "created_at": "2025-12-23T19:05:26.029000Z",
        "updated_at": "2026-01-10T14:23:21.978000Z"
      },
      {
        "id": 1214,
        "name": "ADD-ON",
        "created_at": "2025-12-23T19:03:20.825000Z",
        "updated_at": "2026-01-10T14:23:21.978000Z"
      },
      {
        "id": 1213,
        "name": "Elemental",
        "created_at": "2025-12-23T19:03:20.047000Z",
        "updated_at": "2026-01-10T14:23:21.977000Z"
      },
      {
        "id": 1212,
        "name": "Fasta Pasta",
        "created_at": "2025-12-23T19:03:10.347000Z",
        "updated_at": "2026-01-10T14:23:21.976000Z"
      },
      {
        "id": 1211,
        "name": "Patak’s",
        "created_at": "2025-12-23T19:03:05.975000Z",
        "updated_at": "2026-01-10T14:23:21.976000Z"
      },
      {
        "id": 1210,
        "name": "Custom recipe",
        "created_at": "2025-12-23T19:02:40.725000Z",
        "updated_at": "2026-01-10T14:23:21.975000Z"
      },
      {
        "id": 1209,
        "name": "WONKA",
        "created_at": "2025-12-23T19:02:34.978000Z",
        "updated_at": "2026-01-10T14:23:21.974000Z"
      },
      {
        "id": 1208,
        "name": "Colman's",
        "created_at": "2025-12-23T19:02:34.598000Z",
        "updated_at": "2026-01-10T14:23:21.974000Z"
      },
      {
        "id": 1207,
        "name": "Air Fryer Friendly",
        "created_at": "2025-12-23T19:02:20.786000Z",
        "updated_at": "2026-01-10T14:23:21.973000Z"
      },
      {
        "id": 1206,
        "name": "Make it Yours",
        "created_at": "2025-12-23T19:02:10.316000Z",
        "updated_at": "2026-01-10T14:23:21.972000Z"
      },
      {
        "id": 1205,
        "name": "Spring Greens",
        "created_at": "2025-12-23T19:02:04.908000Z",
        "updated_at": "2026-01-10T14:23:21.971000Z"
      },
      {
        "id": 1204,
        "name": "Knorr",
        "created_at": "2025-12-23T19:01:58.754000Z",
        "updated_at": "2026-01-10T14:23:21.971000Z"
      },
      {
        "id": 1203,
        "name": "Mix & Match",
        "created_at": "2025-12-23T19:01:57.720000Z",
        "updated_at": "2026-01-10T14:23:21.970000Z"
      },
      {
        "id": 1202,
        "name": "Chef's Pick",
        "created_at": "2025-12-23T19:01:56.471000Z",
        "updated_at": "2026-01-10T14:23:21.969000Z"
      },
      {
        "id": 1201,
        "name": "American Diner",
        "created_at": "2025-12-23T19:01:50.000000Z",
        "updated_at": "2026-01-10T14:23:21.969000Z"
      },
      {
        "id": 1200,
        "name": "Limited Edition",
        "created_at": "2025-12-23T19:01:49.254000Z",
        "updated_at": "2026-01-18T00:56:15.652000Z"
      },
      {
        "id": 1199,
        "name": "10min Express",
        "created_at": "2025-12-23T19:01:48.073000Z",
        "updated_at": "2026-01-10T14:23:21.967000Z"
      },
      {
        "id": 1198,
        "name": "Make Kid Friendly",
        "created_at": "2025-12-23T19:01:47.555000Z",
        "updated_at": "2026-01-10T14:23:21.966000Z"
      },
      {
        "id": 1197,
        "name": "Charity donation",
        "created_at": "2025-12-23T19:01:42.967000Z",
        "updated_at": "2026-01-10T14:23:21.965000Z"
      },
      {
        "id": 1196,
        "name": "Stacey Solomon",
        "created_at": "2025-12-23T19:01:39.995000Z",
        "updated_at": "2026-01-10T14:23:21.965000Z"
      },
      {
        "id": 1195,
        "name": "BBQ Feast",
        "created_at": "2025-12-23T19:01:36.774000Z",
        "updated_at": "2026-01-10T14:23:21.964000Z"
      },
      {
        "id": 1194,
        "name": "Summer BBQ",
        "created_at": "2025-12-23T19:01:36.697000Z",
        "updated_at": "2026-01-10T14:23:21.963000Z"
      },
      {
        "id": 1193,
        "name": "Olympic Fever",
        "created_at": "2025-12-23T19:01:32.118000Z",
        "updated_at": "2026-01-10T14:23:21.963000Z"
      },
      {
        "id": 1188,
        "name": "Takeaway Feast",
        "created_at": "2025-12-23T19:01:08.441000Z",
        "updated_at": "2026-01-10T14:23:21.962000Z"
      },
      {
        "id": 1187,
        "name": "Itsu",
        "created_at": "2025-12-23T19:01:08.411000Z",
        "updated_at": "2026-01-10T14:23:21.961000Z"
      },
      {
        "id": 1117,
        "name": "A Taste of Sri Lanka",
        "created_at": "2025-12-23T18:54:22.182000Z",
        "updated_at": "2026-01-10T14:23:21.960000Z"
      },
      {
        "id": 1113,
        "name": "A Taste of Greece",
        "created_at": "2025-12-23T18:53:44.596000Z",
        "updated_at": "2026-01-10T14:23:21.960000Z"
      },
      {
        "id": 1105,
        "name": "Dinner & Dessert",
        "created_at": "2025-12-23T18:53:19.765000Z",
        "updated_at": "2026-01-10T14:23:21.959000Z"
      },
      {
        "id": 1103,
        "name": "Taste the Caribbean",
        "created_at": "2025-12-23T18:52:59.295000Z",
        "updated_at": "2026-01-10T14:23:21.958000Z"
      },
      {
        "id": 1101,
        "name": "A Taste of Georgia",
        "created_at": "2025-12-23T18:52:57.402000Z",
        "updated_at": "2026-01-10T14:23:21.957000Z"
      },
      {
        "id": 1097,
        "name": "Salmon Special",
        "created_at": "2025-12-23T18:52:30.541000Z",
        "updated_at": "2026-01-10T14:23:21.956000Z"
      },
      {
        "id": 1088,
        "name": "A Taste of Turkey",
        "created_at": "2025-12-23T18:51:53.141000Z",
        "updated_at": "2026-01-10T14:23:21.956000Z"
      },
      {
        "id": 1087,
        "name": "Offer",
        "created_at": "2025-12-23T18:51:53.032000Z",
        "updated_at": "2026-01-10T14:23:21.955000Z"
      },
      {
        "id": 1085,
        "name": "Baileys Caramel",
        "created_at": "2025-12-23T18:51:40.512000Z",
        "updated_at": "2026-01-10T14:23:21.954000Z"
      },
      {
        "id": 1081,
        "name": "Veggie Ultimate",
        "created_at": "2025-12-23T18:51:06.965000Z",
        "updated_at": "2026-01-10T14:23:21.953000Z"
      },
      {
        "id": 1079,
        "name": "Roast",
        "created_at": "2025-12-23T18:50:41.994000Z",
        "updated_at": "2026-01-10T14:23:21.953000Z"
      },
      {
        "id": 1077,
        "name": "A Taste of Vietnam",
        "created_at": "2025-12-23T18:50:34.684000Z",
        "updated_at": "2026-01-18T00:13:30.285000Z"
      },
      {
        "id": 1075,
        "name": "Veggie Craft Burger",
        "created_at": "2025-12-23T18:50:33.314000Z",
        "updated_at": "2026-01-10T14:23:21.951000Z"
      },
      {
        "id": 1074,
        "name": "Gastropub",
        "created_at": "2025-12-23T18:50:33.258000Z",
        "updated_at": "2026-01-10T14:23:21.951000Z"
      },
      {
        "id": 1073,
        "name": "3 Step Prep",
        "created_at": "2025-12-23T18:50:33.233000Z",
        "updated_at": "2026-01-10T14:23:21.950000Z"
      },
      {
        "id": 1072,
        "name": "Kickstart 2025",
        "created_at": "2025-12-23T18:50:33.202000Z",
        "updated_at": "2026-01-10T14:23:21.949000Z"
      },
      {
        "id": 1070,
        "name": "Premium Plus",
        "created_at": "2025-12-23T18:50:25.728000Z",
        "updated_at": "2026-01-10T14:23:21.948000Z"
      },
      {
        "id": 1069,
        "name": "A Taste of Jamaica",
        "created_at": "2025-12-23T18:50:25.453000Z",
        "updated_at": "2026-01-10T14:23:21.948000Z"
      }
    ],
    "meta": {
      "current_page": 1,
      "from": 1,
      "last_page": 3,
      "per_page": 50,
      "to": 50,
      "total": 136
    }
  }
}