{
  "metadata": {
    "pull_date": "2026-01-23",
    "endpoint": "tags",
    "locale": "en-GB",
    "page": 4,
    "pulled_at_utc": "2026-01-23T22:35:15.777686"
  },
  "payload": {
    "data": [
      {
        "id": 17,
        "name": "World-flavors",
        "created_at": "2025-12-23T18:22:07.611000Z",
        "updated_at": "2026-01-17T12:03:34.859000Z"
      },
      {
        "id": 16,
        "name": "Classic-euro-dishes",
        "created_at": "2025-12-23T18:22:07.410000Z",
        "updated_at": "2026-01-17T12:03:34.858000Z"
      },
      {
        "id": 15,
        "name": "Quick",
        "created_at": "2025-12-23T18:22:07.408000Z",
        "updated_at": "2026-01-17T12:03:34.858000Z"
      },
      {
        "id": 14,
        "name": "Soup-stew",
        "created_at": "2025-12-23T18:22:07.226000Z",
        "updated_at": "2026-01-17T12:03:34.857000Z"
      },
      {
        "id": 13,
        "name": "Latin-american-faves",
        "created_at": "2025-12-23T18:22:07.224000Z",
        "updated_at": "2026-01-17T12:03:34.856000Z"
      },
      {
        "id": 12,
        "name": "Pescatarian",
        "created_at": "2025-12-23T18:22:07.221000Z",
        "updated_at": "2026-01-17T12:03:34.855000Z"
      },
      {
        "id": 11,
        "name": "Discovery",
        "created_at": "2025-12-23T18:22:07.218000Z",
        "updated_at": "2026-01-17T12:03:34.855000Z"
      },
      {
        "id": 10,
        "name": "Healthy Options",
        "created_at": "2025-12-23T18:22:07.131000Z",
        "updated_at": "2026-01-17T12:03:34.854000Z"
      },
      {
        "id": 9,
        "name": "Calorie Smart",
        "created_at": "2025-12-23T18:22:07.127000Z",
        "updated_at": "2026-01-17T12:03:34.853000Z"
      },
      {
        "id": 8,
        "name": "High Protein",
        "created_at": "2025-12-23T18:22:06.998000Z",
        "updated_at": "2026-01-17T12:03:34.852000Z"
      },
      {
        "id": 7,
        "name": "Pasta-noodles",
        "created_at": "2025-12-23T18:22:06.996000Z",
        "updated_at": "2026-01-17T12:03:34.852000Z"
      },
      {
        "id": 6,
        "name": "Super Quick",
        "created_at": "2025-12-23T18:22:06.993000Z",
        "updated_at": "2026-01-17T12:03:34.851000Z"
      },
      {
        "id": 5,
        "name": "Low Carb",
        "created_at": "2025-12-23T18:22:06.906000Z",
        "updated_at": "2026-01-17T12:03:34.850000Z"
      },
      {
        "id": 4,
        "name": "Veggie",
        "created_at": "2025-12-23T18:22:06.797000Z",
        "updated_at": "2026-01-17T12:03:34.849000Z"
      },
      {
        "id": 3,
        "name": "Dinner-bowls",
        "created_at": "2025-12-23T18:22:06.794000Z",
        "updated_at": "2026-01-17T12:03:34.849000Z"
      },
      {
        "id": 2,
        "name": "Mediterranean",
        "created_at": "2025-12-23T18:22:06.791000Z",
        "updated_at": "2026-01-17T12:03:34.848000Z"
      },
      {
        "id": 1,
        "name": "Medium Spice",
        "created_at": "2025-12-23T18:22:06.789000Z",
        "updated_at": "2026-01-17T12:03:34.847000Z"
      }
    ],
    "meta": {
      "current_page": 4,
      "from": 151,
      "last_page": 4,
      "per_page": 50,
      "to": 167,
      "total": 167
    }
  }
}