{
  "metadata": {
    "pull_date": "2026-01-23",
    "endpoint": "tags",
    "locale": "en-GB",
    "page": 2,
    "pulled_at_utc": "2026-01-23T22:35:15.338636"
  },
  "payload": {
    "data": [
      {
        "id": 1525,
        "name": "35-percent-off",
        "created_at": "2025-12-23T18:51:52.647000Z",
        "updated_at": "2026-01-10T14:23:06.604000Z"
      },
      {
        "id": 1524,
        "name": "Sides-bites",
        "created_at": "2025-12-23T18:51:41.251000Z",
        "updated_at": "2026-01-10T14:23:06.603000Z"
      },
      {
        "id": 1521,
        "name": "Customise Me",
        "created_at": "2025-12-23T18:51:28.865000Z",
        "updated_at": "2026-01-10T14:23:06.602000Z"
      },
      {
        "id": 1520,
        "name": "SEO",
        "created_at": "2025-12-23T18:51:06.969000Z",
        "updated_at": "2026-01-10T14:23:06.602000Z"
      },
      {
        "id": 1516,
        "name": "Healthy-kick-start",
        "created_at": "2025-12-23T18:50:34.197000Z",
        "updated_at": "2026-01-10T14:23:06.601000Z"
      },
      {
        "id": 1515,
        "name": "Fair",
        "created_at": "2025-12-23T18:50:26.216000Z",
        "updated_at": "2026-01-10T14:23:06.600000Z"
      },
      {
        "id": 1514,
        "name": "New Year Celebration",
        "created_at": "2025-12-23T18:50:25.941000Z",
        "updated_at": "2026-01-10T14:23:06.599000Z"
      },
      {
        "id": 1504,
        "name": "Winter-wonders",
        "created_at": "2025-12-23T18:50:06.388000Z",
        "updated_at": "2026-01-10T14:23:06.598000Z"
      },
      {
        "id": 1503,
        "name": "Breakfast-kits",
        "created_at": "2025-12-23T18:50:06.357000Z",
        "updated_at": "2026-01-10T14:23:06.597000Z"
      },
      {
        "id": 1502,
        "name": "40-percent-off",
        "created_at": "2025-12-23T18:49:56.118000Z",
        "updated_at": "2026-01-10T14:23:06.596000Z"
      },
      {
        "id": 1501,
        "name": "Lunch-salad",
        "created_at": "2025-12-23T18:49:56.111000Z",
        "updated_at": "2026-01-10T14:23:06.596000Z"
      },
      {
        "id": 1498,
        "name": "Paddington-partner",
        "created_at": "2025-12-23T18:49:47.934000Z",
        "updated_at": "2026-01-10T14:23:06.595000Z"
      },
      {
        "id": 1497,
        "name": "Lunar New Year",
        "created_at": "2025-12-23T18:49:47.820000Z",
        "updated_at": "2026-01-17T12:03:34.881000Z"
      },
      {
        "id": 1494,
        "name": "Winter-ski",
        "created_at": "2025-12-23T18:49:46.891000Z",
        "updated_at": "2026-01-10T14:23:06.593000Z"
      },
      {
        "id": 1491,
        "name": "Valentine-day",
        "created_at": "2025-12-23T18:48:20.571000Z",
        "updated_at": "2026-01-18T00:12:30.816000Z"
      },
      {
        "id": 1488,
        "name": "Fruits-Galore",
        "created_at": "2025-12-23T18:47:38.078000Z",
        "updated_at": "2026-01-10T14:23:06.591000Z"
      },
      {
        "id": 1486,
        "name": "Six-nations",
        "created_at": "2025-12-23T18:47:26.977000Z",
        "updated_at": "2026-01-18T00:12:30.805000Z"
      },
      {
        "id": 1484,
        "name": "Low-emission",
        "created_at": "2025-12-23T18:47:20.862000Z",
        "updated_at": "2026-01-10T14:23:06.590000Z"
      },
      {
        "id": 1483,
        "name": "St Patrick's Day",
        "created_at": "2025-12-23T18:47:20.308000Z",
        "updated_at": "2026-01-10T14:23:06.589000Z"
      },
      {
        "id": 1478,
        "name": "Mothers-day",
        "created_at": "2025-12-23T18:47:00.521000Z",
        "updated_at": "2026-01-10T14:23:06.588000Z"
      },
      {
        "id": 1469,
        "name": "Childhood-classics",
        "created_at": "2025-12-23T18:46:34.720000Z",
        "updated_at": "2026-01-10T14:23:06.587000Z"
      },
      {
        "id": 1467,
        "name": "15 min meal",
        "created_at": "2025-12-23T18:46:16.195000Z",
        "updated_at": "2026-01-10T14:23:06.586000Z"
      },
      {
        "id": 1465,
        "name": "Sides-salad",
        "created_at": "2025-12-23T18:46:10.804000Z",
        "updated_at": "2026-01-10T14:23:06.585000Z"
      },
      {
        "id": 1462,
        "name": "15-min-meals",
        "created_at": "2025-12-23T18:46:10.642000Z",
        "updated_at": "2026-01-10T14:23:06.584000Z"
      },
      {
        "id": 1459,
        "name": "Takeout-favorites",
        "created_at": "2025-12-23T18:45:57.425000Z",
        "updated_at": "2026-01-10T14:23:06.584000Z"
      },
      {
        "id": 1456,
        "name": "Spring Celebration",
        "created_at": "2025-12-23T18:45:48.942000Z",
        "updated_at": "2026-01-10T14:23:06.583000Z"
      },
      {
        "id": 1454,
        "name": "May Bank Holiday",
        "created_at": "2025-12-23T18:45:39.287000Z",
        "updated_at": "2026-01-10T14:23:06.582000Z"
      },
      {
        "id": 1452,
        "name": "Summer-picnic",
        "created_at": "2025-12-23T18:45:22.705000Z",
        "updated_at": "2026-01-10T14:23:06.581000Z"
      },
      {
        "id": 1451,
        "name": "Super Sonic",
        "created_at": "2025-12-23T18:45:20.782000Z",
        "updated_at": "2026-01-10T14:23:06.580000Z"
      },
      {
        "id": 1450,
        "name": "Father-day",
        "created_at": "2025-12-23T18:45:19.486000Z",
        "updated_at": "2026-01-10T14:23:06.579000Z"
      },
      {
        "id": 1433,
        "name": "Bbq-season",
        "created_at": "2025-12-23T18:44:22.040000Z",
        "updated_at": "2026-01-10T14:23:06.578000Z"
      },
      {
        "id": 1429,
        "name": "A Taste of Italy",
        "created_at": "2025-12-23T18:44:09.982000Z",
        "updated_at": "2026-01-10T14:23:06.578000Z"
      },
      {
        "id": 1428,
        "name": "Pizza Night",
        "created_at": "2025-12-23T18:44:09.823000Z",
        "updated_at": "2026-01-10T14:23:06.577000Z"
      },
      {
        "id": 1417,
        "name": "Lunch-combos",
        "created_at": "2025-12-23T18:43:21.546000Z",
        "updated_at": "2026-01-10T14:23:06.576000Z"
      },
      {
        "id": 1416,
        "name": "Lunch-soup",
        "created_at": "2025-12-23T18:43:21.537000Z",
        "updated_at": "2026-01-10T14:23:06.575000Z"
      },
      {
        "id": 1399,
        "name": "Tropical-flavours",
        "created_at": "2025-12-23T18:42:34.958000Z",
        "updated_at": "2026-01-10T14:23:06.574000Z"
      },
      {
        "id": 1365,
        "name": "Fusion flavours",
        "created_at": "2025-12-23T18:39:59.593000Z",
        "updated_at": "2026-01-10T14:23:06.573000Z"
      },
      {
        "id": 1364,
        "name": "Premium",
        "created_at": "2025-12-23T18:39:59.579000Z",
        "updated_at": "2026-01-10T14:23:06.572000Z"
      },
      {
        "id": 1305,
        "name": "August-bank-hol",
        "created_at": "2025-12-23T18:37:33.049000Z",
        "updated_at": "2026-01-10T14:23:06.572000Z"
      },
      {
        "id": 1297,
        "name": "Sunshining-dining",
        "created_at": "2025-12-23T18:37:12.834000Z",
        "updated_at": "2026-01-10T14:23:06.571000Z"
      },
      {
        "id": 1227,
        "name": "Summer-essentials",
        "created_at": "2025-12-23T18:33:57.204000Z",
        "updated_at": "2026-01-10T14:23:06.570000Z"
      },
      {
        "id": 1222,
        "name": "Seasonal",
        "created_at": "2025-12-23T18:33:43.916000Z",
        "updated_at": "2026-01-10T14:23:06.569000Z"
      },
      {
        "id": 1162,
        "name": "Back-to-school",
        "created_at": "2025-12-23T18:31:49.598000Z",
        "updated_at": "2026-01-10T14:23:06.568000Z"
      },
      {
        "id": 1161,
        "name": "Autumn-flavours",
        "created_at": "2025-12-23T18:31:49.505000Z",
        "updated_at": "2026-01-10T14:23:06.567000Z"
      },
      {
        "id": 1160,
        "name": "Pork-free",
        "created_at": "2025-12-23T18:31:49.501000Z",
        "updated_at": "2026-01-10T14:23:06.567000Z"
      },
      {
        "id": 1158,
        "name": "Sides-bread",
        "created_at": "2025-12-23T18:31:41.520000Z",
        "updated_at": "2026-01-10T14:23:06.566000Z"
      },
      {
        "id": 1149,
        "name": "Halloween",
        "created_at": "2025-12-23T18:31:32.790000Z",
        "updated_at": "2026-01-10T14:23:06.565000Z"
      },
      {
        "id": 1148,
        "name": "One-pan",
        "created_at": "2025-12-23T18:31:32.666000Z",
        "updated_at": "2026-01-17T12:03:34.878000Z"
      },
      {
        "id": 1094,
        "name": "Tasty-adventures",
        "created_at": "2025-12-23T18:29:40.870000Z",
        "updated_at": "2026-01-10T14:23:06.563000Z"
      },
      {
        "id": 1089,
        "name": "Bonfire Night",
        "created_at": "2025-12-23T18:29:35.523000Z",
        "updated_at": "2026-01-10T14:23:06.562000Z"
      }
    ],
    "meta": {
      "current_page": 2,
      "from": 51,
      "last_page": 4,
      "per_page": 50,
      "to": 100,
      "total": 167
    }
  }
}