{
  "metadata": {
    "pull_date": "2026-01-23",
    "endpoint": "tags",
    "locale": "en-GB",
    "page": 1,
    "pulled_at_utc": "2026-01-23T22:35:15.105481"
  },
  "payload": {
    "data": [
      {
        "id": 2015,
        "name": "Hidden-veg",
        "created_at": "2026-01-17T00:29:36.627000Z",
        "updated_at": "2026-01-17T12:03:34.886000Z"
      },
      {
        "id": 2014,
        "name": "Build your own plate",
        "created_at": "2026-01-17T00:29:33.446000Z",
        "updated_at": "2026-01-17T12:03:34.885000Z"
      },
      {
        "id": 1999,
        "name": "Family",
        "created_at": "2026-01-02T20:19:21.826000Z",
        "updated_at": "2026-01-17T12:03:34.884000Z"
      },
      {
        "id": 1985,
        "name": "Low Cholesterol",
        "created_at": "2026-01-02T02:47:16.112000Z",
        "updated_at": "2026-01-10T14:23:06.644000Z"
      },
      {
        "id": 1984,
        "name": "High Fibre",
        "created_at": "2026-01-02T02:46:31.656000Z",
        "updated_at": "2026-01-10T14:23:06.643000Z"
      },
      {
        "id": 1983,
        "name": "Nut free",
        "created_at": "2026-01-02T02:46:04.863000Z",
        "updated_at": "2026-01-10T14:23:06.643000Z"
      },
      {
        "id": 1936,
        "name": "Green Chef",
        "created_at": "2026-01-02T02:35:42.147000Z",
        "updated_at": "2026-01-10T14:23:06.642000Z"
      },
      {
        "id": 1640,
        "name": "Seafood First",
        "created_at": "2025-12-23T19:06:02.473000Z",
        "updated_at": "2026-01-10T14:23:06.641000Z"
      },
      {
        "id": 1639,
        "name": "Lactose Free",
        "created_at": "2025-12-23T19:05:58.907000Z",
        "updated_at": "2026-01-10T14:23:06.640000Z"
      },
      {
        "id": 1638,
        "name": "Hall of Fame",
        "created_at": "2025-12-23T19:05:55.580000Z",
        "updated_at": "2026-01-10T14:23:06.639000Z"
      },
      {
        "id": 1637,
        "name": "Cooking tips",
        "created_at": "2025-12-23T19:05:55.324000Z",
        "updated_at": "2026-01-10T14:23:06.638000Z"
      },
      {
        "id": 1636,
        "name": "Eat First",
        "created_at": "2025-12-23T19:05:54.659000Z",
        "updated_at": "2026-01-10T14:23:06.637000Z"
      },
      {
        "id": 1635,
        "name": "Summer",
        "created_at": "2025-12-23T19:05:53.741000Z",
        "updated_at": "2026-01-10T14:23:06.636000Z"
      },
      {
        "id": 1634,
        "name": "Fish",
        "created_at": "2025-12-23T19:05:53.432000Z",
        "updated_at": "2026-01-10T14:23:06.636000Z"
      },
      {
        "id": 1633,
        "name": "Child Friendly",
        "created_at": "2025-12-23T19:05:53.419000Z",
        "updated_at": "2026-01-10T14:23:06.635000Z"
      },
      {
        "id": 1632,
        "name": "Pasta",
        "created_at": "2025-12-23T19:05:53.216000Z",
        "updated_at": "2026-01-10T14:23:06.634000Z"
      },
      {
        "id": 1631,
        "name": "Dairy Free",
        "created_at": "2025-12-23T19:05:47.274000Z",
        "updated_at": "2026-01-10T14:23:06.633000Z"
      },
      {
        "id": 1630,
        "name": "Not Suitable for Coeliacs",
        "created_at": "2025-12-23T19:05:47.210000Z",
        "updated_at": "2026-01-10T14:23:06.632000Z"
      },
      {
        "id": 1618,
        "name": "Low Fat",
        "created_at": "2025-12-23T19:05:37.555000Z",
        "updated_at": "2026-01-10T14:23:06.631000Z"
      },
      {
        "id": 1617,
        "name": "Low Salt",
        "created_at": "2025-12-23T19:05:32.660000Z",
        "updated_at": "2026-01-10T14:23:06.630000Z"
      },
      {
        "id": 1616,
        "name": "Calorie Conscious",
        "created_at": "2025-12-23T19:05:31.480000Z",
        "updated_at": "2026-01-10T14:23:06.630000Z"
      },
      {
        "id": 1615,
        "name": "Dessert-baking",
        "created_at": "2025-12-23T19:05:14.580000Z",
        "updated_at": "2026-01-10T14:23:06.629000Z"
      },
      {
        "id": 1614,
        "name": "Balanced",
        "created_at": "2025-12-23T19:05:12.599000Z",
        "updated_at": "2026-01-10T14:23:06.628000Z"
      },
      {
        "id": 1613,
        "name": "Plant-based",
        "created_at": "2025-12-23T19:04:54.707000Z",
        "updated_at": "2026-01-10T14:23:06.627000Z"
      },
      {
        "id": 1612,
        "name": "Meal Prep",
        "created_at": "2025-12-23T19:04:14.993000Z",
        "updated_at": "2026-01-10T14:23:06.626000Z"
      },
      {
        "id": 1611,
        "name": "Cook together",
        "created_at": "2025-12-23T19:04:14.651000Z",
        "updated_at": "2026-01-10T14:23:06.625000Z"
      },
      {
        "id": 1610,
        "name": "Eiwitrijk",
        "created_at": "2025-12-23T19:04:00.740000Z",
        "updated_at": "2026-01-10T14:23:06.625000Z"
      },
      {
        "id": 1608,
        "name": "Eggs not included",
        "created_at": "2025-12-23T19:03:48.724000Z",
        "updated_at": "2026-01-10T14:23:06.624000Z"
      },
      {
        "id": 1607,
        "name": "Grocery-bakery",
        "created_at": "2025-12-23T19:03:29.227000Z",
        "updated_at": "2026-01-10T14:23:06.623000Z"
      },
      {
        "id": 1606,
        "name": "Grocery",
        "created_at": "2025-12-23T19:03:28.313000Z",
        "updated_at": "2026-01-10T14:23:06.622000Z"
      },
      {
        "id": 1605,
        "name": "Dessert-ready",
        "created_at": "2025-12-23T19:03:28.308000Z",
        "updated_at": "2026-01-10T14:23:06.621000Z"
      },
      {
        "id": 1604,
        "name": "Under 30g carbs",
        "created_at": "2025-12-23T19:03:14.745000Z",
        "updated_at": "2026-01-10T14:23:06.620000Z"
      },
      {
        "id": 1603,
        "name": "Festival-selection",
        "created_at": "2025-12-23T19:03:13.507000Z",
        "updated_at": "2026-01-10T14:23:06.619000Z"
      },
      {
        "id": 1602,
        "name": "Summer-alfresco",
        "created_at": "2025-12-23T19:03:13.429000Z",
        "updated_at": "2026-01-10T14:23:06.619000Z"
      },
      {
        "id": 1601,
        "name": "Climate Superstar",
        "created_at": "2025-12-23T19:03:06.551000Z",
        "updated_at": "2026-01-10T14:23:06.618000Z"
      },
      {
        "id": 1600,
        "name": "WeightWatchers",
        "created_at": "2025-12-23T19:03:01.621000Z",
        "updated_at": "2026-01-10T14:23:06.617000Z"
      },
      {
        "id": 1598,
        "name": "Thanksgiving",
        "created_at": "2025-12-23T19:02:41.724000Z",
        "updated_at": "2026-01-10T14:23:06.616000Z"
      },
      {
        "id": 1595,
        "name": "Rapid",
        "created_at": "2025-12-23T19:02:25.536000Z",
        "updated_at": "2026-01-10T14:23:06.615000Z"
      },
      {
        "id": 1594,
        "name": "Air Fryer Friendly",
        "created_at": "2025-12-23T19:02:21.135000Z",
        "updated_at": "2026-01-10T14:23:06.614000Z"
      },
      {
        "id": 1593,
        "name": "Akt-charity",
        "created_at": "2025-12-23T19:01:42.954000Z",
        "updated_at": "2026-01-10T14:23:06.613000Z"
      },
      {
        "id": 1592,
        "name": "Under 600 calories",
        "created_at": "2025-12-23T19:01:41.742000Z",
        "updated_at": "2026-01-10T14:23:06.613000Z"
      },
      {
        "id": 1591,
        "name": "Good",
        "created_at": "2025-12-23T19:01:41.711000Z",
        "updated_at": "2026-01-10T14:23:06.612000Z"
      },
      {
        "id": 1590,
        "name": "Euro's",
        "created_at": "2025-12-23T19:01:40.558000Z",
        "updated_at": "2026-01-10T14:23:06.611000Z"
      },
      {
        "id": 1589,
        "name": "Olympics",
        "created_at": "2025-12-23T19:01:32.097000Z",
        "updated_at": "2026-01-10T14:23:06.610000Z"
      },
      {
        "id": 1588,
        "name": "Steak-dinner",
        "created_at": "2025-12-23T19:01:21.003000Z",
        "updated_at": "2026-01-10T14:23:06.609000Z"
      },
      {
        "id": 1586,
        "name": "Itsu",
        "created_at": "2025-12-23T19:01:16.054000Z",
        "updated_at": "2026-01-10T14:23:06.608000Z"
      },
      {
        "id": 1585,
        "name": "Diy-dinner",
        "created_at": "2025-12-23T19:01:15.257000Z",
        "updated_at": "2026-01-10T14:23:06.608000Z"
      },
      {
        "id": 1584,
        "name": "Easy Prep",
        "created_at": "2025-12-23T19:01:06.380000Z",
        "updated_at": "2026-01-10T14:23:06.607000Z"
      },
      {
        "id": 1582,
        "name": "Super Quick Prep",
        "created_at": "2025-12-23T19:00:53.677000Z",
        "updated_at": "2026-01-10T14:23:06.606000Z"
      },
      {
        "id": 1526,
        "name": "Date Night",
        "created_at": "2025-12-23T18:51:53.015000Z",
        "updated_at": "2026-01-10T14:23:06.605000Z"
      }
    ],
    "meta": {
      "current_page": 1,
      "from": 1,
      "last_page": 4,
      "per_page": 50,
      "to": 50,
      "total": 167
    }
  }
}